[0.064s] Invoking command in '/home/umrob/M2/ros-2-planar-rob/build/ros2_planar_robot': CMAKE_PREFIX_PATH=${CMAKE_PREFIX_PATH}:/opt/ros/humble CONDA_PROMPT_MODIFIER=(base) /usr/bin/cmake --build /home/umrob/M2/ros-2-planar-rob/build/ros2_planar_robot -- -j8 -l8
[0.112s] [  1%] Built target ros2_planar_robot__cpp
[0.116s] [ 11%] Built target ros2_planar_robot__rosidl_generator_c
[0.118s] [ 14%] Built target trajectory_generation_lib
[0.128s] [ 14%] Built target ament_cmake_python_copy_ros2_planar_robot
[0.145s] [ 32%] Built target ros2_planar_robot__rosidl_typesupport_introspection_cpp
[0.145s] [ 35%] Built target ros2_planar_robot__rosidl_typesupport_cpp
[0.147s] [ 66%] Built target ros2_planar_robot__rosidl_typesupport_fastrtps_cpp
[0.147s] [ 66%] Built target ros2_planar_robot__rosidl_typesupport_introspection_c
[0.147s] [ 66%] Built target ros2_planar_robot__rosidl_typesupport_c
[0.150s] [ 76%] Built target ros2_planar_robot__rosidl_typesupport_fastrtps_c
[0.159s] [35m[1mConsolidate compiler generated dependencies of target high_lev_mng[0m
[0.171s] [ 76%] Built target ros2_planar_robot
[0.178s] [ 80%] [32mBuilding CXX object CMakeFiles/high_lev_mng.dir/src/high_lev_mng.cpp.o[0m
[0.178s] [ 80%] Built target trajectory_generator
[0.189s] [ 81%] Built target ros2_planar_robot__py
[0.212s] [ 90%] Built target ros2_planar_robot__rosidl_generator_py
[0.236s] [ 96%] Built target ros2_planar_robot__rosidl_typesupport_introspection_c__pyext
[0.236s] [ 96%] Built target ros2_planar_robot__rosidl_typesupport_c__pyext
[0.241s] [ 98%] Built target ros2_planar_robot__rosidl_typesupport_fastrtps_c__pyext
[0.395s] running egg_info
[0.396s] writing ros2_planar_robot.egg-info/PKG-INFO
[0.396s] writing dependency_links to ros2_planar_robot.egg-info/dependency_links.txt
[0.396s] writing top-level names to ros2_planar_robot.egg-info/top_level.txt
[0.399s] reading manifest file 'ros2_planar_robot.egg-info/SOURCES.txt'
[0.399s] writing manifest file 'ros2_planar_robot.egg-info/SOURCES.txt'
[0.426s] [ 98%] Built target ament_cmake_python_build_ros2_planar_robot_egg
[3.076s] [01m[K/home/umrob/M2/ros-2-planar-rob/src/high_lev_mng.cpp:[m[K In member function ‘[01m[Kvoid HighLevMng::topic_callback(ros2_planar_robot::msg::KinData_<std::allocator<void> >::SharedPtr)[m[K’:
[3.076s] [01m[K/home/umrob/M2/ros-2-planar-rob/src/high_lev_mng.cpp:36:72:[m[K [01;35m[Kwarning: [m[Kunused parameter ‘[01m[Kref_pose[m[K’ [[01;35m[K]8;;https://gcc.gnu.org/onlinedocs/gcc/Warning-Options.html#index-Wunused-parameter-Wunused-parameter]8;;[m[K]
[3.076s]    36 | pic_callback([01;35m[Kconst ros2_planar_robot::msg::KinData::SharedPtr ref_pose[m[K)
[3.076s]       |              [01;35m[K~~~~~~~~~~~~~~~~~~~~~~~~~~~~~~~~~~~~~~~~~~~~~~~~~^~~~~~~~[m[K
[3.076s] 
[3.077s] [01m[K/home/umrob/M2/ros-2-planar-rob/src/high_lev_mng.cpp:[m[K In member function ‘[01m[Kvoid HighLevMng::topic_callback1()[m[K’:
[3.077s] [01m[K/home/umrob/M2/ros-2-planar-rob/src/high_lev_mng.cpp:45:10:[m[K [01;35m[Kwarning: [m[Kvariable ‘[01m[Krequest[m[K’ set but not used [[01;35m[K]8;;https://gcc.gnu.org/onlinedocs/gcc/Warning-Options.html#index-Wunused-but-set-variable-Wunused-but-set-variable]8;;[m[K]
[3.077s]    45 |     auto [01;35m[Krequest[m[K= ros2_planar_robot::srv::Data::Request();
[3.077s]       |          [01;35m[K^~~~~~~[m[K
[10.005s] [100%] [32m[1mLinking CXX executable high_lev_mng[0m
[10.539s] [100%] Built target high_lev_mng
[10.550s] Invoked command in '/home/umrob/M2/ros-2-planar-rob/build/ros2_planar_robot' returned '0': CMAKE_PREFIX_PATH=${CMAKE_PREFIX_PATH}:/opt/ros/humble CONDA_PROMPT_MODIFIER=(base) /usr/bin/cmake --build /home/umrob/M2/ros-2-planar-rob/build/ros2_planar_robot -- -j8 -l8
[10.673s] Invoking command in '/home/umrob/M2/ros-2-planar-rob/build/ros2_planar_robot': CMAKE_PREFIX_PATH=${CMAKE_PREFIX_PATH}:/opt/ros/humble CONDA_PROMPT_MODIFIER=(base) /usr/bin/cmake --install /home/umrob/M2/ros-2-planar-rob/build/ros2_planar_robot
[10.680s] -- Install configuration: ""
[10.680s] -- Up-to-date: /home/umrob/M2/ros-2-planar-rob/install/ros2_planar_robot/share/ament_index/resource_index/rosidl_interfaces/ros2_planar_robot
[10.680s] -- Up-to-date: /home/umrob/M2/ros-2-planar-rob/install/ros2_planar_robot/include/ros2_planar_robot/ros2_planar_robot
[10.680s] -- Up-to-date: /home/umrob/M2/ros-2-planar-rob/install/ros2_planar_robot/include/ros2_planar_robot/ros2_planar_robot/msg
[10.681s] -- Up-to-date: /home/umrob/M2/ros-2-planar-rob/install/ros2_planar_robot/include/ros2_planar_robot/ros2_planar_robot/msg/detail
[10.681s] -- Installing: /home/umrob/M2/ros-2-planar-rob/install/ros2_planar_robot/include/ros2_planar_robot/ros2_planar_robot/msg/detail/velocity__type_support.h
[10.681s] -- Installing: /home/umrob/M2/ros-2-planar-rob/install/ros2_planar_robot/include/ros2_planar_robot/ros2_planar_robot/msg/detail/ref_pose__functions.c
[10.681s] -- Installing: /home/umrob/M2/ros-2-planar-rob/install/ros2_planar_robot/include/ros2_planar_robot/ros2_planar_robot/msg/detail/cartesian_state__functions.h
[10.681s] -- Installing: /home/umrob/M2/ros-2-planar-rob/install/ros2_planar_robot/include/ros2_planar_robot/ros2_planar_robot/msg/detail/pose__functions.c
[10.682s] -- Installing: /home/umrob/M2/ros-2-planar-rob/install/ros2_planar_robot/include/ros2_planar_robot/ros2_planar_robot/msg/detail/pose__type_support.h
[10.682s] -- Installing: /home/umrob/M2/ros-2-planar-rob/install/ros2_planar_robot/include/ros2_planar_robot/ros2_planar_robot/msg/detail/velocity__functions.c
[10.682s] -- Installing: /home/umrob/M2/ros-2-planar-rob/install/ros2_planar_robot/include/ros2_planar_robot/ros2_planar_robot/msg/detail/kin_data__struct.h
[10.682s] -- Installing: /home/umrob/M2/ros-2-planar-rob/install/ros2_planar_robot/include/ros2_planar_robot/ros2_planar_robot/msg/detail/kin_data__functions.h
[10.682s] -- Installing: /home/umrob/M2/ros-2-planar-rob/install/ros2_planar_robot/include/ros2_planar_robot/ros2_planar_robot/msg/detail/kin_data__functions.c
[10.683s] -- Installing: /home/umrob/M2/ros-2-planar-rob/install/ros2_planar_robot/include/ros2_planar_robot/ros2_planar_robot/msg/detail/ref_pose__type_support.h
[10.683s] -- Installing: /home/umrob/M2/ros-2-planar-rob/install/ros2_planar_robot/include/ros2_planar_robot/ros2_planar_robot/msg/detail/velocity__struct.h
[10.683s] -- Installing: /home/umrob/M2/ros-2-planar-rob/install/ros2_planar_robot/include/ros2_planar_robot/ros2_planar_robot/msg/detail/ref_pose__functions.h
[10.683s] -- Installing: /home/umrob/M2/ros-2-planar-rob/install/ros2_planar_robot/include/ros2_planar_robot/ros2_planar_robot/msg/detail/velocity__functions.h
[10.683s] -- Installing: /home/umrob/M2/ros-2-planar-rob/install/ros2_planar_robot/include/ros2_planar_robot/ros2_planar_robot/msg/detail/cartesian_state__struct.h
[10.684s] -- Installing: /home/umrob/M2/ros-2-planar-rob/install/ros2_planar_robot/include/ros2_planar_robot/ros2_planar_robot/msg/detail/ref_pose__struct.h
[10.684s] -- Installing: /home/umrob/M2/ros-2-planar-rob/install/ros2_planar_robot/include/ros2_planar_robot/ros2_planar_robot/msg/detail/cartesian_state__functions.c
[10.684s] -- Installing: /home/umrob/M2/ros-2-planar-rob/install/ros2_planar_robot/include/ros2_planar_robot/ros2_planar_robot/msg/detail/pose__struct.h
[10.684s] -- Installing: /home/umrob/M2/ros-2-planar-rob/install/ros2_planar_robot/include/ros2_planar_robot/ros2_planar_robot/msg/detail/cartesian_state__type_support.h
[10.684s] -- Installing: /home/umrob/M2/ros-2-planar-rob/install/ros2_planar_robot/include/ros2_planar_robot/ros2_planar_robot/msg/detail/pose__functions.h
[10.684s] -- Installing: /home/umrob/M2/ros-2-planar-rob/install/ros2_planar_robot/include/ros2_planar_robot/ros2_planar_robot/msg/detail/kin_data__type_support.h
[10.685s] -- Installing: /home/umrob/M2/ros-2-planar-rob/install/ros2_planar_robot/include/ros2_planar_robot/ros2_planar_robot/msg/velocity.h
[10.685s] -- Installing: /home/umrob/M2/ros-2-planar-rob/install/ros2_planar_robot/include/ros2_planar_robot/ros2_planar_robot/msg/pose.h
[10.685s] -- Installing: /home/umrob/M2/ros-2-planar-rob/install/ros2_planar_robot/include/ros2_planar_robot/ros2_planar_robot/msg/ref_pose.h
[10.685s] -- Installing: /home/umrob/M2/ros-2-planar-rob/install/ros2_planar_robot/include/ros2_planar_robot/ros2_planar_robot/msg/cartesian_state.h
[10.685s] -- Up-to-date: /home/umrob/M2/ros-2-planar-rob/install/ros2_planar_robot/include/ros2_planar_robot/ros2_planar_robot/msg/rosidl_generator_c__visibility_control.h
[10.685s] -- Installing: /home/umrob/M2/ros-2-planar-rob/install/ros2_planar_robot/include/ros2_planar_robot/ros2_planar_robot/msg/kin_data.h
[10.686s] -- Up-to-date: /home/umrob/M2/ros-2-planar-rob/install/ros2_planar_robot/include/ros2_planar_robot/ros2_planar_robot/srv
[10.686s] -- Up-to-date: /home/umrob/M2/ros-2-planar-rob/install/ros2_planar_robot/include/ros2_planar_robot/ros2_planar_robot/srv/detail
[10.686s] -- Installing: /home/umrob/M2/ros-2-planar-rob/install/ros2_planar_robot/include/ros2_planar_robot/ros2_planar_robot/srv/detail/data__functions.c
[10.686s] -- Installing: /home/umrob/M2/ros-2-planar-rob/install/ros2_planar_robot/include/ros2_planar_robot/ros2_planar_robot/srv/detail/data__functions.h
[10.686s] -- Installing: /home/umrob/M2/ros-2-planar-rob/install/ros2_planar_robot/include/ros2_planar_robot/ros2_planar_robot/srv/detail/data__struct.h
[10.686s] -- Installing: /home/umrob/M2/ros-2-planar-rob/install/ros2_planar_robot/include/ros2_planar_robot/ros2_planar_robot/srv/detail/data__type_support.h
[10.686s] -- Installing: /home/umrob/M2/ros-2-planar-rob/install/ros2_planar_robot/include/ros2_planar_robot/ros2_planar_robot/srv/data.h
[10.687s] -- Up-to-date: /home/umrob/M2/ros-2-planar-rob/install/ros2_planar_robot/share/ros2_planar_robot/environment/library_path.sh
[10.687s] -- Installing: /home/umrob/M2/ros-2-planar-rob/install/ros2_planar_robot/share/ros2_planar_robot/environment/library_path.dsv
[10.688s] -- Installing: /home/umrob/M2/ros-2-planar-rob/install/ros2_planar_robot/lib/libros2_planar_robot__rosidl_generator_c.so
[10.688s] -- Set runtime path of "/home/umrob/M2/ros-2-planar-rob/install/ros2_planar_robot/lib/libros2_planar_robot__rosidl_generator_c.so" to ""
[10.688s] -- Up-to-date: /home/umrob/M2/ros-2-planar-rob/install/ros2_planar_robot/include/ros2_planar_robot/ros2_planar_robot
[10.688s] -- Up-to-date: /home/umrob/M2/ros-2-planar-rob/install/ros2_planar_robot/include/ros2_planar_robot/ros2_planar_robot/msg
[10.688s] -- Up-to-date: /home/umrob/M2/ros-2-planar-rob/install/ros2_planar_robot/include/ros2_planar_robot/ros2_planar_robot/msg/detail
[10.689s] -- Installing: /home/umrob/M2/ros-2-planar-rob/install/ros2_planar_robot/include/ros2_planar_robot/ros2_planar_robot/msg/detail/pose__rosidl_typesupport_fastrtps_c.h
[10.689s] -- Installing: /home/umrob/M2/ros-2-planar-rob/install/ros2_planar_robot/include/ros2_planar_robot/ros2_planar_robot/msg/detail/ref_pose__rosidl_typesupport_fastrtps_c.h
[10.689s] -- Installing: /home/umrob/M2/ros-2-planar-rob/install/ros2_planar_robot/include/ros2_planar_robot/ros2_planar_robot/msg/detail/cartesian_state__rosidl_typesupport_fastrtps_c.h
[10.689s] -- Installing: /home/umrob/M2/ros-2-planar-rob/install/ros2_planar_robot/include/ros2_planar_robot/ros2_planar_robot/msg/detail/velocity__rosidl_typesupport_fastrtps_c.h
[10.689s] -- Installing: /home/umrob/M2/ros-2-planar-rob/install/ros2_planar_robot/include/ros2_planar_robot/ros2_planar_robot/msg/detail/kin_data__rosidl_typesupport_fastrtps_c.h
[10.689s] -- Up-to-date: /home/umrob/M2/ros-2-planar-rob/install/ros2_planar_robot/include/ros2_planar_robot/ros2_planar_robot/msg/rosidl_typesupport_fastrtps_c__visibility_control.h
[10.689s] -- Up-to-date: /home/umrob/M2/ros-2-planar-rob/install/ros2_planar_robot/include/ros2_planar_robot/ros2_planar_robot/srv
[10.689s] -- Up-to-date: /home/umrob/M2/ros-2-planar-rob/install/ros2_planar_robot/include/ros2_planar_robot/ros2_planar_robot/srv/detail
[10.690s] -- Installing: /home/umrob/M2/ros-2-planar-rob/install/ros2_planar_robot/include/ros2_planar_robot/ros2_planar_robot/srv/detail/data__rosidl_typesupport_fastrtps_c.h
[10.690s] -- Installing: /home/umrob/M2/ros-2-planar-rob/install/ros2_planar_robot/lib/libros2_planar_robot__rosidl_typesupport_fastrtps_c.so
[10.690s] -- Set runtime path of "/home/umrob/M2/ros-2-planar-rob/install/ros2_planar_robot/lib/libros2_planar_robot__rosidl_typesupport_fastrtps_c.so" to ""
[10.691s] -- Up-to-date: /home/umrob/M2/ros-2-planar-rob/install/ros2_planar_robot/include/ros2_planar_robot/ros2_planar_robot
[10.691s] -- Up-to-date: /home/umrob/M2/ros-2-planar-rob/install/ros2_planar_robot/include/ros2_planar_robot/ros2_planar_robot/msg
[10.691s] -- Up-to-date: /home/umrob/M2/ros-2-planar-rob/install/ros2_planar_robot/include/ros2_planar_robot/ros2_planar_robot/msg/detail
[10.691s] -- Installing: /home/umrob/M2/ros-2-planar-rob/install/ros2_planar_robot/include/ros2_planar_robot/ros2_planar_robot/msg/detail/cartesian_state__struct.hpp
[10.691s] -- Installing: /home/umrob/M2/ros-2-planar-rob/install/ros2_planar_robot/include/ros2_planar_robot/ros2_planar_robot/msg/detail/velocity__traits.hpp
[10.691s] -- Installing: /home/umrob/M2/ros-2-planar-rob/install/ros2_planar_robot/include/ros2_planar_robot/ros2_planar_robot/msg/detail/kin_data__traits.hpp
[10.691s] -- Installing: /home/umrob/M2/ros-2-planar-rob/install/ros2_planar_robot/include/ros2_planar_robot/ros2_planar_robot/msg/detail/kin_data__struct.hpp
[10.691s] -- Installing: /home/umrob/M2/ros-2-planar-rob/install/ros2_planar_robot/include/ros2_planar_robot/ros2_planar_robot/msg/detail/ref_pose__traits.hpp
[10.692s] -- Installing: /home/umrob/M2/ros-2-planar-rob/install/ros2_planar_robot/include/ros2_planar_robot/ros2_planar_robot/msg/detail/kin_data__builder.hpp
[10.692s] -- Installing: /home/umrob/M2/ros-2-planar-rob/install/ros2_planar_robot/include/ros2_planar_robot/ros2_planar_robot/msg/detail/ref_pose__builder.hpp
[10.692s] -- Installing: /home/umrob/M2/ros-2-planar-rob/install/ros2_planar_robot/include/ros2_planar_robot/ros2_planar_robot/msg/detail/pose__traits.hpp
[10.692s] -- Installing: /home/umrob/M2/ros-2-planar-rob/install/ros2_planar_robot/include/ros2_planar_robot/ros2_planar_robot/msg/detail/cartesian_state__traits.hpp
[10.692s] -- Installing: /home/umrob/M2/ros-2-planar-rob/install/ros2_planar_robot/include/ros2_planar_robot/ros2_planar_robot/msg/detail/ref_pose__struct.hpp
[10.692s] -- Installing: /home/umrob/M2/ros-2-planar-rob/install/ros2_planar_robot/include/ros2_planar_robot/ros2_planar_robot/msg/detail/pose__builder.hpp
[10.692s] -- Installing: /home/umrob/M2/ros-2-planar-rob/install/ros2_planar_robot/include/ros2_planar_robot/ros2_planar_robot/msg/detail/pose__struct.hpp
[10.692s] -- Installing: /home/umrob/M2/ros-2-planar-rob/install/ros2_planar_robot/include/ros2_planar_robot/ros2_planar_robot/msg/detail/cartesian_state__builder.hpp
[10.692s] -- Installing: /home/umrob/M2/ros-2-planar-rob/install/ros2_planar_robot/include/ros2_planar_robot/ros2_planar_robot/msg/detail/velocity__builder.hpp
[10.693s] -- Installing: /home/umrob/M2/ros-2-planar-rob/install/ros2_planar_robot/include/ros2_planar_robot/ros2_planar_robot/msg/detail/velocity__struct.hpp
[10.693s] -- Installing: /home/umrob/M2/ros-2-planar-rob/install/ros2_planar_robot/include/ros2_planar_robot/ros2_planar_robot/msg/ref_pose.hpp
[10.693s] -- Installing: /home/umrob/M2/ros-2-planar-rob/install/ros2_planar_robot/include/ros2_planar_robot/ros2_planar_robot/msg/cartesian_state.hpp
[10.693s] -- Installing: /home/umrob/M2/ros-2-planar-rob/install/ros2_planar_robot/include/ros2_planar_robot/ros2_planar_robot/msg/kin_data.hpp
[10.693s] -- Installing: /home/umrob/M2/ros-2-planar-rob/install/ros2_planar_robot/include/ros2_planar_robot/ros2_planar_robot/msg/pose.hpp
[10.693s] -- Installing: /home/umrob/M2/ros-2-planar-rob/install/ros2_planar_robot/include/ros2_planar_robot/ros2_planar_robot/msg/velocity.hpp
[10.693s] -- Up-to-date: /home/umrob/M2/ros-2-planar-rob/install/ros2_planar_robot/include/ros2_planar_robot/ros2_planar_robot/srv
[10.693s] -- Up-to-date: /home/umrob/M2/ros-2-planar-rob/install/ros2_planar_robot/include/ros2_planar_robot/ros2_planar_robot/srv/detail
[10.694s] -- Installing: /home/umrob/M2/ros-2-planar-rob/install/ros2_planar_robot/include/ros2_planar_robot/ros2_planar_robot/srv/detail/data__struct.hpp
[10.694s] -- Installing: /home/umrob/M2/ros-2-planar-rob/install/ros2_planar_robot/include/ros2_planar_robot/ros2_planar_robot/srv/detail/data__builder.hpp
[10.694s] -- Installing: /home/umrob/M2/ros-2-planar-rob/install/ros2_planar_robot/include/ros2_planar_robot/ros2_planar_robot/srv/detail/data__traits.hpp
[10.694s] -- Installing: /home/umrob/M2/ros-2-planar-rob/install/ros2_planar_robot/include/ros2_planar_robot/ros2_planar_robot/srv/data.hpp
[10.694s] -- Up-to-date: /home/umrob/M2/ros-2-planar-rob/install/ros2_planar_robot/include/ros2_planar_robot/ros2_planar_robot
[10.694s] -- Up-to-date: /home/umrob/M2/ros-2-planar-rob/install/ros2_planar_robot/include/ros2_planar_robot/ros2_planar_robot/msg
[10.694s] -- Up-to-date: /home/umrob/M2/ros-2-planar-rob/install/ros2_planar_robot/include/ros2_planar_robot/ros2_planar_robot/msg/detail
[10.694s] -- Installing: /home/umrob/M2/ros-2-planar-rob/install/ros2_planar_robot/include/ros2_planar_robot/ros2_planar_robot/msg/detail/velocity__rosidl_typesupport_fastrtps_cpp.hpp
[10.694s] -- Installing: /home/umrob/M2/ros-2-planar-rob/install/ros2_planar_robot/include/ros2_planar_robot/ros2_planar_robot/msg/detail/pose__rosidl_typesupport_fastrtps_cpp.hpp
[10.695s] -- Up-to-date: /home/umrob/M2/ros-2-planar-rob/install/ros2_planar_robot/include/ros2_planar_robot/ros2_planar_robot/msg/detail/dds_fastrtps
[10.695s] -- Installing: /home/umrob/M2/ros-2-planar-rob/install/ros2_planar_robot/include/ros2_planar_robot/ros2_planar_robot/msg/detail/cartesian_state__rosidl_typesupport_fastrtps_cpp.hpp
[10.695s] -- Installing: /home/umrob/M2/ros-2-planar-rob/install/ros2_planar_robot/include/ros2_planar_robot/ros2_planar_robot/msg/detail/ref_pose__rosidl_typesupport_fastrtps_cpp.hpp
[10.695s] -- Installing: /home/umrob/M2/ros-2-planar-rob/install/ros2_planar_robot/include/ros2_planar_robot/ros2_planar_robot/msg/detail/kin_data__rosidl_typesupport_fastrtps_cpp.hpp
[10.695s] -- Up-to-date: /home/umrob/M2/ros-2-planar-rob/install/ros2_planar_robot/include/ros2_planar_robot/ros2_planar_robot/msg/rosidl_typesupport_fastrtps_cpp__visibility_control.h
[10.695s] -- Up-to-date: /home/umrob/M2/ros-2-planar-rob/install/ros2_planar_robot/include/ros2_planar_robot/ros2_planar_robot/srv
[10.695s] -- Up-to-date: /home/umrob/M2/ros-2-planar-rob/install/ros2_planar_robot/include/ros2_planar_robot/ros2_planar_robot/srv/detail
[10.695s] -- Installing: /home/umrob/M2/ros-2-planar-rob/install/ros2_planar_robot/include/ros2_planar_robot/ros2_planar_robot/srv/detail/data__rosidl_typesupport_fastrtps_cpp.hpp
[10.695s] -- Up-to-date: /home/umrob/M2/ros-2-planar-rob/install/ros2_planar_robot/include/ros2_planar_robot/ros2_planar_robot/srv/detail/dds_fastrtps
[10.696s] -- Installing: /home/umrob/M2/ros-2-planar-rob/install/ros2_planar_robot/lib/libros2_planar_robot__rosidl_typesupport_fastrtps_cpp.so
[10.696s] -- Set runtime path of "/home/umrob/M2/ros-2-planar-rob/install/ros2_planar_robot/lib/libros2_planar_robot__rosidl_typesupport_fastrtps_cpp.so" to ""
[10.696s] -- Up-to-date: /home/umrob/M2/ros-2-planar-rob/install/ros2_planar_robot/include/ros2_planar_robot/ros2_planar_robot
[10.696s] -- Up-to-date: /home/umrob/M2/ros-2-planar-rob/install/ros2_planar_robot/include/ros2_planar_robot/ros2_planar_robot/msg
[10.697s] -- Up-to-date: /home/umrob/M2/ros-2-planar-rob/install/ros2_planar_robot/include/ros2_planar_robot/ros2_planar_robot/msg/detail
[10.697s] -- Installing: /home/umrob/M2/ros-2-planar-rob/install/ros2_planar_robot/include/ros2_planar_robot/ros2_planar_robot/msg/detail/pose__rosidl_typesupport_introspection_c.h
[10.697s] -- Installing: /home/umrob/M2/ros-2-planar-rob/install/ros2_planar_robot/include/ros2_planar_robot/ros2_planar_robot/msg/detail/kin_data__rosidl_typesupport_introspection_c.h
[10.697s] -- Installing: /home/umrob/M2/ros-2-planar-rob/install/ros2_planar_robot/include/ros2_planar_robot/ros2_planar_robot/msg/detail/kin_data__type_support.c
[10.697s] -- Installing: /home/umrob/M2/ros-2-planar-rob/install/ros2_planar_robot/include/ros2_planar_robot/ros2_planar_robot/msg/detail/ref_pose__type_support.c
[10.697s] -- Installing: /home/umrob/M2/ros-2-planar-rob/install/ros2_planar_robot/include/ros2_planar_robot/ros2_planar_robot/msg/detail/pose__type_support.c
[10.697s] -- Installing: /home/umrob/M2/ros-2-planar-rob/install/ros2_planar_robot/include/ros2_planar_robot/ros2_planar_robot/msg/detail/velocity__type_support.c
[10.698s] -- Installing: /home/umrob/M2/ros-2-planar-rob/install/ros2_planar_robot/include/ros2_planar_robot/ros2_planar_robot/msg/detail/velocity__rosidl_typesupport_introspection_c.h
[10.698s] -- Installing: /home/umrob/M2/ros-2-planar-rob/install/ros2_planar_robot/include/ros2_planar_robot/ros2_planar_robot/msg/detail/ref_pose__rosidl_typesupport_introspection_c.h
[10.698s] -- Installing: /home/umrob/M2/ros-2-planar-rob/install/ros2_planar_robot/include/ros2_planar_robot/ros2_planar_robot/msg/detail/cartesian_state__rosidl_typesupport_introspection_c.h
[10.698s] -- Installing: /home/umrob/M2/ros-2-planar-rob/install/ros2_planar_robot/include/ros2_planar_robot/ros2_planar_robot/msg/detail/cartesian_state__type_support.c
[10.698s] -- Up-to-date: /home/umrob/M2/ros-2-planar-rob/install/ros2_planar_robot/include/ros2_planar_robot/ros2_planar_robot/msg/rosidl_typesupport_introspection_c__visibility_control.h
[10.698s] -- Up-to-date: /home/umrob/M2/ros-2-planar-rob/install/ros2_planar_robot/include/ros2_planar_robot/ros2_planar_robot/srv
[10.699s] -- Up-to-date: /home/umrob/M2/ros-2-planar-rob/install/ros2_planar_robot/include/ros2_planar_robot/ros2_planar_robot/srv/detail
[10.699s] -- Installing: /home/umrob/M2/ros-2-planar-rob/install/ros2_planar_robot/include/ros2_planar_robot/ros2_planar_robot/srv/detail/data__type_support.c
[10.699s] -- Installing: /home/umrob/M2/ros-2-planar-rob/install/ros2_planar_robot/include/ros2_planar_robot/ros2_planar_robot/srv/detail/data__rosidl_typesupport_introspection_c.h
[10.700s] -- Installing: /home/umrob/M2/ros-2-planar-rob/install/ros2_planar_robot/lib/libros2_planar_robot__rosidl_typesupport_introspection_c.so
[10.700s] -- Set runtime path of "/home/umrob/M2/ros-2-planar-rob/install/ros2_planar_robot/lib/libros2_planar_robot__rosidl_typesupport_introspection_c.so" to ""
[10.701s] -- Installing: /home/umrob/M2/ros-2-planar-rob/install/ros2_planar_robot/lib/libros2_planar_robot__rosidl_typesupport_c.so
[10.701s] -- Set runtime path of "/home/umrob/M2/ros-2-planar-rob/install/ros2_planar_robot/lib/libros2_planar_robot__rosidl_typesupport_c.so" to ""
[10.701s] -- Up-to-date: /home/umrob/M2/ros-2-planar-rob/install/ros2_planar_robot/include/ros2_planar_robot/ros2_planar_robot
[10.701s] -- Up-to-date: /home/umrob/M2/ros-2-planar-rob/install/ros2_planar_robot/include/ros2_planar_robot/ros2_planar_robot/msg
[10.702s] -- Up-to-date: /home/umrob/M2/ros-2-planar-rob/install/ros2_planar_robot/include/ros2_planar_robot/ros2_planar_robot/msg/detail
[10.702s] -- Installing: /home/umrob/M2/ros-2-planar-rob/install/ros2_planar_robot/include/ros2_planar_robot/ros2_planar_robot/msg/detail/kin_data__rosidl_typesupport_introspection_cpp.hpp
[10.702s] -- Installing: /home/umrob/M2/ros-2-planar-rob/install/ros2_planar_robot/include/ros2_planar_robot/ros2_planar_robot/msg/detail/kin_data__type_support.cpp
[10.702s] -- Installing: /home/umrob/M2/ros-2-planar-rob/install/ros2_planar_robot/include/ros2_planar_robot/ros2_planar_robot/msg/detail/ref_pose__rosidl_typesupport_introspection_cpp.hpp
[10.702s] -- Installing: /home/umrob/M2/ros-2-planar-rob/install/ros2_planar_robot/include/ros2_planar_robot/ros2_planar_robot/msg/detail/velocity__rosidl_typesupport_introspection_cpp.hpp
[10.702s] -- Installing: /home/umrob/M2/ros-2-planar-rob/install/ros2_planar_robot/include/ros2_planar_robot/ros2_planar_robot/msg/detail/cartesian_state__type_support.cpp
[10.702s] -- Installing: /home/umrob/M2/ros-2-planar-rob/install/ros2_planar_robot/include/ros2_planar_robot/ros2_planar_robot/msg/detail/pose__type_support.cpp
[10.703s] -- Installing: /home/umrob/M2/ros-2-planar-rob/install/ros2_planar_robot/include/ros2_planar_robot/ros2_planar_robot/msg/detail/cartesian_state__rosidl_typesupport_introspection_cpp.hpp
[10.703s] -- Installing: /home/umrob/M2/ros-2-planar-rob/install/ros2_planar_robot/include/ros2_planar_robot/ros2_planar_robot/msg/detail/pose__rosidl_typesupport_introspection_cpp.hpp
[10.703s] -- Installing: /home/umrob/M2/ros-2-planar-rob/install/ros2_planar_robot/include/ros2_planar_robot/ros2_planar_robot/msg/detail/ref_pose__type_support.cpp
[10.703s] -- Installing: /home/umrob/M2/ros-2-planar-rob/install/ros2_planar_robot/include/ros2_planar_robot/ros2_planar_robot/msg/detail/velocity__type_support.cpp
[10.703s] -- Up-to-date: /home/umrob/M2/ros-2-planar-rob/install/ros2_planar_robot/include/ros2_planar_robot/ros2_planar_robot/srv
[10.704s] -- Up-to-date: /home/umrob/M2/ros-2-planar-rob/install/ros2_planar_robot/include/ros2_planar_robot/ros2_planar_robot/srv/detail
[10.704s] -- Installing: /home/umrob/M2/ros-2-planar-rob/install/ros2_planar_robot/include/ros2_planar_robot/ros2_planar_robot/srv/detail/data__rosidl_typesupport_introspection_cpp.hpp
[10.704s] -- Installing: /home/umrob/M2/ros-2-planar-rob/install/ros2_planar_robot/include/ros2_planar_robot/ros2_planar_robot/srv/detail/data__type_support.cpp
[10.704s] -- Installing: /home/umrob/M2/ros-2-planar-rob/install/ros2_planar_robot/lib/libros2_planar_robot__rosidl_typesupport_introspection_cpp.so
[10.705s] -- Set runtime path of "/home/umrob/M2/ros-2-planar-rob/install/ros2_planar_robot/lib/libros2_planar_robot__rosidl_typesupport_introspection_cpp.so" to ""
[10.705s] -- Installing: /home/umrob/M2/ros-2-planar-rob/install/ros2_planar_robot/lib/libros2_planar_robot__rosidl_typesupport_cpp.so
[10.706s] -- Set runtime path of "/home/umrob/M2/ros-2-planar-rob/install/ros2_planar_robot/lib/libros2_planar_robot__rosidl_typesupport_cpp.so" to ""
[10.706s] -- Up-to-date: /home/umrob/M2/ros-2-planar-rob/install/ros2_planar_robot/share/ros2_planar_robot/environment/pythonpath.sh
[10.706s] -- Installing: /home/umrob/M2/ros-2-planar-rob/install/ros2_planar_robot/share/ros2_planar_robot/environment/pythonpath.dsv
[10.706s] -- Up-to-date: /home/umrob/M2/ros-2-planar-rob/install/ros2_planar_robot/local/lib/python3.10/dist-packages/ros2_planar_robot-0.0.0-py3.10.egg-info
[10.706s] -- Installing: /home/umrob/M2/ros-2-planar-rob/install/ros2_planar_robot/local/lib/python3.10/dist-packages/ros2_planar_robot-0.0.0-py3.10.egg-info/dependency_links.txt
[10.706s] -- Installing: /home/umrob/M2/ros-2-planar-rob/install/ros2_planar_robot/local/lib/python3.10/dist-packages/ros2_planar_robot-0.0.0-py3.10.egg-info/SOURCES.txt
[10.706s] -- Installing: /home/umrob/M2/ros-2-planar-rob/install/ros2_planar_robot/local/lib/python3.10/dist-packages/ros2_planar_robot-0.0.0-py3.10.egg-info/PKG-INFO
[10.706s] -- Installing: /home/umrob/M2/ros-2-planar-rob/install/ros2_planar_robot/local/lib/python3.10/dist-packages/ros2_planar_robot-0.0.0-py3.10.egg-info/top_level.txt
[10.706s] -- Up-to-date: /home/umrob/M2/ros-2-planar-rob/install/ros2_planar_robot/local/lib/python3.10/dist-packages/ros2_planar_robot
[10.707s] -- Installing: /home/umrob/M2/ros-2-planar-rob/install/ros2_planar_robot/local/lib/python3.10/dist-packages/ros2_planar_robot/_ros2_planar_robot_s.ep.rosidl_typesupport_c.c
[10.707s] -- Installing: /home/umrob/M2/ros-2-planar-rob/install/ros2_planar_robot/local/lib/python3.10/dist-packages/ros2_planar_robot/ros2_planar_robot_s__rosidl_typesupport_fastrtps_c.cpython-38-x86_64-linux-gnu.so
[10.707s] -- Installing: /home/umrob/M2/ros-2-planar-rob/install/ros2_planar_robot/local/lib/python3.10/dist-packages/ros2_planar_robot/_ros2_planar_robot_s.ep.rosidl_typesupport_introspection_c.c
[10.707s] -- Installing: /home/umrob/M2/ros-2-planar-rob/install/ros2_planar_robot/local/lib/python3.10/dist-packages/ros2_planar_robot/_ros2_planar_robot_s.ep.rosidl_typesupport_fastrtps_c.c
[10.707s] -- Installing: /home/umrob/M2/ros-2-planar-rob/install/ros2_planar_robot/local/lib/python3.10/dist-packages/ros2_planar_robot/ros2_planar_robot_s__rosidl_typesupport_introspection_c.cpython-38-x86_64-linux-gnu.so
[10.707s] -- Up-to-date: /home/umrob/M2/ros-2-planar-rob/install/ros2_planar_robot/local/lib/python3.10/dist-packages/ros2_planar_robot/msg
[10.707s] -- Installing: /home/umrob/M2/ros-2-planar-rob/install/ros2_planar_robot/local/lib/python3.10/dist-packages/ros2_planar_robot/msg/_ref_pose.py
[10.707s] -- Installing: /home/umrob/M2/ros-2-planar-rob/install/ros2_planar_robot/local/lib/python3.10/dist-packages/ros2_planar_robot/msg/_kin_data.py
[10.707s] -- Installing: /home/umrob/M2/ros-2-planar-rob/install/ros2_planar_robot/local/lib/python3.10/dist-packages/ros2_planar_robot/msg/_velocity_s.c
[10.708s] -- Installing: /home/umrob/M2/ros-2-planar-rob/install/ros2_planar_robot/local/lib/python3.10/dist-packages/ros2_planar_robot/msg/_kin_data_s.c
[10.708s] -- Installing: /home/umrob/M2/ros-2-planar-rob/install/ros2_planar_robot/local/lib/python3.10/dist-packages/ros2_planar_robot/msg/_cartesian_state.py
[10.708s] -- Installing: /home/umrob/M2/ros-2-planar-rob/install/ros2_planar_robot/local/lib/python3.10/dist-packages/ros2_planar_robot/msg/_pose.py
[10.708s] -- Installing: /home/umrob/M2/ros-2-planar-rob/install/ros2_planar_robot/local/lib/python3.10/dist-packages/ros2_planar_robot/msg/_cartesian_state_s.c
[10.708s] -- Installing: /home/umrob/M2/ros-2-planar-rob/install/ros2_planar_robot/local/lib/python3.10/dist-packages/ros2_planar_robot/msg/_ref_pose_s.c
[10.708s] -- Installing: /home/umrob/M2/ros-2-planar-rob/install/ros2_planar_robot/local/lib/python3.10/dist-packages/ros2_planar_robot/msg/_pose_s.c
[10.708s] -- Installing: /home/umrob/M2/ros-2-planar-rob/install/ros2_planar_robot/local/lib/python3.10/dist-packages/ros2_planar_robot/msg/__init__.py
[10.708s] -- Installing: /home/umrob/M2/ros-2-planar-rob/install/ros2_planar_robot/local/lib/python3.10/dist-packages/ros2_planar_robot/msg/_velocity.py
[10.708s] -- Installing: /home/umrob/M2/ros-2-planar-rob/install/ros2_planar_robot/local/lib/python3.10/dist-packages/ros2_planar_robot/libros2_planar_robot__rosidl_generator_py.so
[10.709s] -- Installing: /home/umrob/M2/ros-2-planar-rob/install/ros2_planar_robot/local/lib/python3.10/dist-packages/ros2_planar_robot/__init__.py
[10.709s] -- Installing: /home/umrob/M2/ros-2-planar-rob/install/ros2_planar_robot/local/lib/python3.10/dist-packages/ros2_planar_robot/ros2_planar_robot_s__rosidl_typesupport_c.cpython-38-x86_64-linux-gnu.so
[10.709s] -- Up-to-date: /home/umrob/M2/ros-2-planar-rob/install/ros2_planar_robot/local/lib/python3.10/dist-packages/ros2_planar_robot/srv
[10.709s] -- Installing: /home/umrob/M2/ros-2-planar-rob/install/ros2_planar_robot/local/lib/python3.10/dist-packages/ros2_planar_robot/srv/_data.py
[10.709s] -- Installing: /home/umrob/M2/ros-2-planar-rob/install/ros2_planar_robot/local/lib/python3.10/dist-packages/ros2_planar_robot/srv/__init__.py
[10.709s] -- Installing: /home/umrob/M2/ros-2-planar-rob/install/ros2_planar_robot/local/lib/python3.10/dist-packages/ros2_planar_robot/srv/_data_s.c
[10.751s] Listing '/home/umrob/M2/ros-2-planar-rob/install/ros2_planar_robot/local/lib/python3.10/dist-packages/ros2_planar_robot'...
[10.751s] Compiling '/home/umrob/M2/ros-2-planar-rob/install/ros2_planar_robot/local/lib/python3.10/dist-packages/ros2_planar_robot/__init__.py'...
[10.751s] Listing '/home/umrob/M2/ros-2-planar-rob/install/ros2_planar_robot/local/lib/python3.10/dist-packages/ros2_planar_robot/msg'...
[10.751s] Compiling '/home/umrob/M2/ros-2-planar-rob/install/ros2_planar_robot/local/lib/python3.10/dist-packages/ros2_planar_robot/msg/__init__.py'...
[10.751s] Compiling '/home/umrob/M2/ros-2-planar-rob/install/ros2_planar_robot/local/lib/python3.10/dist-packages/ros2_planar_robot/msg/_cartesian_state.py'...
[10.751s] Compiling '/home/umrob/M2/ros-2-planar-rob/install/ros2_planar_robot/local/lib/python3.10/dist-packages/ros2_planar_robot/msg/_kin_data.py'...
[10.752s] Compiling '/home/umrob/M2/ros-2-planar-rob/install/ros2_planar_robot/local/lib/python3.10/dist-packages/ros2_planar_robot/msg/_pose.py'...
[10.752s] Compiling '/home/umrob/M2/ros-2-planar-rob/install/ros2_planar_robot/local/lib/python3.10/dist-packages/ros2_planar_robot/msg/_ref_pose.py'...
[10.752s] Compiling '/home/umrob/M2/ros-2-planar-rob/install/ros2_planar_robot/local/lib/python3.10/dist-packages/ros2_planar_robot/msg/_velocity.py'...
[10.752s] Listing '/home/umrob/M2/ros-2-planar-rob/install/ros2_planar_robot/local/lib/python3.10/dist-packages/ros2_planar_robot/srv'...
[10.752s] Compiling '/home/umrob/M2/ros-2-planar-rob/install/ros2_planar_robot/local/lib/python3.10/dist-packages/ros2_planar_robot/srv/__init__.py'...
[10.752s] Compiling '/home/umrob/M2/ros-2-planar-rob/install/ros2_planar_robot/local/lib/python3.10/dist-packages/ros2_planar_robot/srv/_data.py'...
[10.756s] -- Installing: /home/umrob/M2/ros-2-planar-rob/install/ros2_planar_robot/local/lib/python3.10/dist-packages/ros2_planar_robot/ros2_planar_robot_s__rosidl_typesupport_fastrtps_c.cpython-38-x86_64-linux-gnu.so
[10.756s] -- Set runtime path of "/home/umrob/M2/ros-2-planar-rob/install/ros2_planar_robot/local/lib/python3.10/dist-packages/ros2_planar_robot/ros2_planar_robot_s__rosidl_typesupport_fastrtps_c.cpython-38-x86_64-linux-gnu.so" to ""
[10.756s] -- Installing: /home/umrob/M2/ros-2-planar-rob/install/ros2_planar_robot/local/lib/python3.10/dist-packages/ros2_planar_robot/ros2_planar_robot_s__rosidl_typesupport_introspection_c.cpython-38-x86_64-linux-gnu.so
[10.756s] -- Set runtime path of "/home/umrob/M2/ros-2-planar-rob/install/ros2_planar_robot/local/lib/python3.10/dist-packages/ros2_planar_robot/ros2_planar_robot_s__rosidl_typesupport_introspection_c.cpython-38-x86_64-linux-gnu.so" to ""
[10.756s] -- Installing: /home/umrob/M2/ros-2-planar-rob/install/ros2_planar_robot/local/lib/python3.10/dist-packages/ros2_planar_robot/ros2_planar_robot_s__rosidl_typesupport_c.cpython-38-x86_64-linux-gnu.so
[10.757s] -- Set runtime path of "/home/umrob/M2/ros-2-planar-rob/install/ros2_planar_robot/local/lib/python3.10/dist-packages/ros2_planar_robot/ros2_planar_robot_s__rosidl_typesupport_c.cpython-38-x86_64-linux-gnu.so" to ""
[10.757s] -- Installing: /home/umrob/M2/ros-2-planar-rob/install/ros2_planar_robot/lib/libros2_planar_robot__rosidl_generator_py.so
[10.757s] -- Set runtime path of "/home/umrob/M2/ros-2-planar-rob/install/ros2_planar_robot/lib/libros2_planar_robot__rosidl_generator_py.so" to ""
[10.757s] -- Up-to-date: /home/umrob/M2/ros-2-planar-rob/install/ros2_planar_robot/share/ros2_planar_robot/msg/RefPose.idl
[10.758s] -- Up-to-date: /home/umrob/M2/ros-2-planar-rob/install/ros2_planar_robot/share/ros2_planar_robot/msg/Pose.idl
[10.758s] -- Up-to-date: /home/umrob/M2/ros-2-planar-rob/install/ros2_planar_robot/share/ros2_planar_robot/msg/CartesianState.idl
[10.758s] -- Up-to-date: /home/umrob/M2/ros-2-planar-rob/install/ros2_planar_robot/share/ros2_planar_robot/msg/Velocity.idl
[10.758s] -- Up-to-date: /home/umrob/M2/ros-2-planar-rob/install/ros2_planar_robot/share/ros2_planar_robot/msg/KinData.idl
[10.758s] -- Installing: /home/umrob/M2/ros-2-planar-rob/install/ros2_planar_robot/share/ros2_planar_robot/srv/Data.idl
[10.758s] -- Up-to-date: /home/umrob/M2/ros-2-planar-rob/install/ros2_planar_robot/share/ros2_planar_robot/msg/RefPose.msg
[10.758s] -- Up-to-date: /home/umrob/M2/ros-2-planar-rob/install/ros2_planar_robot/share/ros2_planar_robot/msg/Pose.msg
[10.758s] -- Up-to-date: /home/umrob/M2/ros-2-planar-rob/install/ros2_planar_robot/share/ros2_planar_robot/msg/CartesianState.msg
[10.758s] -- Up-to-date: /home/umrob/M2/ros-2-planar-rob/install/ros2_planar_robot/share/ros2_planar_robot/msg/Velocity.msg
[10.759s] -- Up-to-date: /home/umrob/M2/ros-2-planar-rob/install/ros2_planar_robot/share/ros2_planar_robot/msg/KinData.msg
[10.759s] -- Installing: /home/umrob/M2/ros-2-planar-rob/install/ros2_planar_robot/share/ros2_planar_robot/srv/Data.srv
[10.759s] -- Installing: /home/umrob/M2/ros-2-planar-rob/install/ros2_planar_robot/share/ros2_planar_robot/srv/Data_Request.msg
[10.759s] -- Installing: /home/umrob/M2/ros-2-planar-rob/install/ros2_planar_robot/share/ros2_planar_robot/srv/Data_Response.msg
[10.759s] -- Installing: /home/umrob/M2/ros-2-planar-rob/install/ros2_planar_robot/lib/ros2_planar_robot/trajectory_generator
[10.764s] -- Set runtime path of "/home/umrob/M2/ros-2-planar-rob/install/ros2_planar_robot/lib/ros2_planar_robot/trajectory_generator" to ""
[10.764s] -- Installing: /home/umrob/M2/ros-2-planar-rob/install/ros2_planar_robot/lib/ros2_planar_robot/high_lev_mng
[10.767s] -- Set runtime path of "/home/umrob/M2/ros-2-planar-rob/install/ros2_planar_robot/lib/ros2_planar_robot/high_lev_mng" to ""
[10.768s] -- Up-to-date: /home/umrob/M2/ros-2-planar-rob/install/ros2_planar_robot/lib/libtrajectory_generation_lib.so
[10.768s] -- Up-to-date: /home/umrob/M2/ros-2-planar-rob/install/ros2_planar_robot/share/ament_index/resource_index/package_run_dependencies/ros2_planar_robot
[10.768s] -- Installing: /home/umrob/M2/ros-2-planar-rob/install/ros2_planar_robot/share/ament_index/resource_index/parent_prefix_path/ros2_planar_robot
[10.768s] -- Up-to-date: /home/umrob/M2/ros-2-planar-rob/install/ros2_planar_robot/share/ros2_planar_robot/environment/ament_prefix_path.sh
[10.768s] -- Installing: /home/umrob/M2/ros-2-planar-rob/install/ros2_planar_robot/share/ros2_planar_robot/environment/ament_prefix_path.dsv
[10.768s] -- Up-to-date: /home/umrob/M2/ros-2-planar-rob/install/ros2_planar_robot/share/ros2_planar_robot/environment/path.sh
[10.768s] -- Installing: /home/umrob/M2/ros-2-planar-rob/install/ros2_planar_robot/share/ros2_planar_robot/environment/path.dsv
[10.769s] -- Up-to-date: /home/umrob/M2/ros-2-planar-rob/install/ros2_planar_robot/share/ros2_planar_robot/local_setup.bash
[10.769s] -- Up-to-date: /home/umrob/M2/ros-2-planar-rob/install/ros2_planar_robot/share/ros2_planar_robot/local_setup.sh
[10.769s] -- Up-to-date: /home/umrob/M2/ros-2-planar-rob/install/ros2_planar_robot/share/ros2_planar_robot/local_setup.zsh
[10.769s] -- Installing: /home/umrob/M2/ros-2-planar-rob/install/ros2_planar_robot/share/ros2_planar_robot/local_setup.dsv
[10.769s] -- Installing: /home/umrob/M2/ros-2-planar-rob/install/ros2_planar_robot/share/ros2_planar_robot/package.dsv
[10.769s] -- Up-to-date: /home/umrob/M2/ros-2-planar-rob/install/ros2_planar_robot/share/ament_index/resource_index/packages/ros2_planar_robot
[10.769s] -- Up-to-date: /home/umrob/M2/ros-2-planar-rob/install/ros2_planar_robot/share/ros2_planar_robot/cmake/export_ros2_planar_robot__rosidl_generator_cExport.cmake
[10.769s] -- Up-to-date: /home/umrob/M2/ros-2-planar-rob/install/ros2_planar_robot/share/ros2_planar_robot/cmake/export_ros2_planar_robot__rosidl_generator_cExport-noconfig.cmake
[10.769s] -- Up-to-date: /home/umrob/M2/ros-2-planar-rob/install/ros2_planar_robot/share/ros2_planar_robot/cmake/export_ros2_planar_robot__rosidl_typesupport_fastrtps_cExport.cmake
[10.770s] -- Up-to-date: /home/umrob/M2/ros-2-planar-rob/install/ros2_planar_robot/share/ros2_planar_robot/cmake/export_ros2_planar_robot__rosidl_typesupport_fastrtps_cExport-noconfig.cmake
[10.770s] -- Up-to-date: /home/umrob/M2/ros-2-planar-rob/install/ros2_planar_robot/share/ros2_planar_robot/cmake/export_ros2_planar_robot__rosidl_generator_cppExport.cmake
[10.770s] -- Up-to-date: /home/umrob/M2/ros-2-planar-rob/install/ros2_planar_robot/share/ros2_planar_robot/cmake/export_ros2_planar_robot__rosidl_typesupport_fastrtps_cppExport.cmake
[10.770s] -- Up-to-date: /home/umrob/M2/ros-2-planar-rob/install/ros2_planar_robot/share/ros2_planar_robot/cmake/export_ros2_planar_robot__rosidl_typesupport_fastrtps_cppExport-noconfig.cmake
[10.770s] -- Up-to-date: /home/umrob/M2/ros-2-planar-rob/install/ros2_planar_robot/share/ros2_planar_robot/cmake/ros2_planar_robot__rosidl_typesupport_introspection_cExport.cmake
[10.770s] -- Up-to-date: /home/umrob/M2/ros-2-planar-rob/install/ros2_planar_robot/share/ros2_planar_robot/cmake/ros2_planar_robot__rosidl_typesupport_introspection_cExport-noconfig.cmake
[10.770s] -- Up-to-date: /home/umrob/M2/ros-2-planar-rob/install/ros2_planar_robot/share/ros2_planar_robot/cmake/ros2_planar_robot__rosidl_typesupport_cExport.cmake
[10.770s] -- Up-to-date: /home/umrob/M2/ros-2-planar-rob/install/ros2_planar_robot/share/ros2_planar_robot/cmake/ros2_planar_robot__rosidl_typesupport_cExport-noconfig.cmake
[10.770s] -- Up-to-date: /home/umrob/M2/ros-2-planar-rob/install/ros2_planar_robot/share/ros2_planar_robot/cmake/ros2_planar_robot__rosidl_typesupport_introspection_cppExport.cmake
[10.771s] -- Up-to-date: /home/umrob/M2/ros-2-planar-rob/install/ros2_planar_robot/share/ros2_planar_robot/cmake/ros2_planar_robot__rosidl_typesupport_introspection_cppExport-noconfig.cmake
[10.771s] -- Up-to-date: /home/umrob/M2/ros-2-planar-rob/install/ros2_planar_robot/share/ros2_planar_robot/cmake/ros2_planar_robot__rosidl_typesupport_cppExport.cmake
[10.771s] -- Up-to-date: /home/umrob/M2/ros-2-planar-rob/install/ros2_planar_robot/share/ros2_planar_robot/cmake/ros2_planar_robot__rosidl_typesupport_cppExport-noconfig.cmake
[10.771s] -- Up-to-date: /home/umrob/M2/ros-2-planar-rob/install/ros2_planar_robot/share/ros2_planar_robot/cmake/export_ros2_planar_robot__rosidl_generator_pyExport.cmake
[10.771s] -- Up-to-date: /home/umrob/M2/ros-2-planar-rob/install/ros2_planar_robot/share/ros2_planar_robot/cmake/export_ros2_planar_robot__rosidl_generator_pyExport-noconfig.cmake
[10.771s] -- Up-to-date: /home/umrob/M2/ros-2-planar-rob/install/ros2_planar_robot/share/ros2_planar_robot/cmake/rosidl_cmake-extras.cmake
[10.771s] -- Up-to-date: /home/umrob/M2/ros-2-planar-rob/install/ros2_planar_robot/share/ros2_planar_robot/cmake/ament_cmake_export_include_directories-extras.cmake
[10.771s] -- Up-to-date: /home/umrob/M2/ros-2-planar-rob/install/ros2_planar_robot/share/ros2_planar_robot/cmake/ament_cmake_export_libraries-extras.cmake
[10.771s] -- Up-to-date: /home/umrob/M2/ros-2-planar-rob/install/ros2_planar_robot/share/ros2_planar_robot/cmake/ament_cmake_export_targets-extras.cmake
[10.772s] -- Up-to-date: /home/umrob/M2/ros-2-planar-rob/install/ros2_planar_robot/share/ros2_planar_robot/cmake/rosidl_cmake_export_typesupport_targets-extras.cmake
[10.772s] -- Up-to-date: /home/umrob/M2/ros-2-planar-rob/install/ros2_planar_robot/share/ros2_planar_robot/cmake/ament_cmake_export_dependencies-extras.cmake
[10.772s] -- Up-to-date: /home/umrob/M2/ros-2-planar-rob/install/ros2_planar_robot/share/ros2_planar_robot/cmake/rosidl_cmake_export_typesupport_libraries-extras.cmake
[10.772s] -- Up-to-date: /home/umrob/M2/ros-2-planar-rob/install/ros2_planar_robot/share/ros2_planar_robot/cmake/ros2_planar_robotConfig.cmake
[10.772s] -- Up-to-date: /home/umrob/M2/ros-2-planar-rob/install/ros2_planar_robot/share/ros2_planar_robot/cmake/ros2_planar_robotConfig-version.cmake
[10.772s] -- Up-to-date: /home/umrob/M2/ros-2-planar-rob/install/ros2_planar_robot/share/ros2_planar_robot/package.xml
[10.774s] Invoked command in '/home/umrob/M2/ros-2-planar-rob/build/ros2_planar_robot' returned '0': CMAKE_PREFIX_PATH=${CMAKE_PREFIX_PATH}:/opt/ros/humble CONDA_PROMPT_MODIFIER=(base) /usr/bin/cmake --install /home/umrob/M2/ros-2-planar-rob/build/ros2_planar_robot
