[0.000000] (-) TimerEvent: {}
[0.000115] (ros2_planar_robot) JobQueued: {'identifier': 'ros2_planar_robot', 'dependencies': OrderedDict()}
[0.000156] (ros2_planar_robot) JobStarted: {'identifier': 'ros2_planar_robot'}
[0.048431] (ros2_planar_robot) JobProgress: {'identifier': 'ros2_planar_robot', 'progress': 'cmake'}
[0.050240] (ros2_planar_robot) JobProgress: {'identifier': 'ros2_planar_robot', 'progress': 'build'}
[0.050287] (ros2_planar_robot) Command: {'cmd': ['/usr/bin/cmake', '--build', '/home/umrob/M2/ros-2-planar-rob/build/ros2_planar_robot', '--', '-j8', '-l8'], 'cwd': '/home/umrob/M2/ros-2-planar-rob/build/ros2_planar_robot', 'env': OrderedDict([('LESSOPEN', '| /usr/bin/lesspipe %s'), ('CONDA_PROMPT_MODIFIER', '(base)'), ('LANGUAGE', 'fr_FR:en'), ('USER', 'umrob'), ('LC_TIME', 'en_US.UTF-8'), ('CONDA_MKL_INTERFACE_LAYER_BACKUP', ''), ('XDG_SESSION_TYPE', 'x11'), ('SHLVL', '1'), ('LD_LIBRARY_PATH', '/opt/ros/humble/opt/rviz_ogre_vendor/lib:/opt/ros/humble/lib/x86_64-linux-gnu:/opt/ros/humble/lib'), ('HOME', '/home/umrob'), ('CONDA_SHLVL', '1'), ('OLDPWD', '/home/umrob/M2'), ('DESKTOP_SESSION', 'ubuntu'), ('ROS_PYTHON_VERSION', '3'), ('GNOME_SHELL_SESSION_MODE', 'ubuntu'), ('GTK_MODULES', 'gail:atk-bridge'), ('LC_MONETARY', 'en_US.UTF-8'), ('SYSTEMD_EXEC_PID', '2992'), ('DBUS_SESSION_BUS_ADDRESS', 'unix:path=/run/user/1000/bus'), ('COLORTERM', 'truecolor'), ('_CE_M', ''), ('IM_CONFIG_PHASE', '1'), ('ROS_DISTRO', 'humble'), ('GTK_IM_MODULE', 'ibus'), ('LOGNAME', 'umrob'), ('_', '/usr/bin/colcon'), ('ROS_VERSION', '2'), ('XDG_SESSION_CLASS', 'user'), ('USERNAME', 'umrob'), ('TERM', 'xterm-256color'), ('GNOME_DESKTOP_SESSION_ID', 'this-is-deprecated'), ('_CE_CONDA', ''), ('ROS_LOCALHOST_ONLY', '1'), ('WINDOWPATH', '2'), ('PATH', '/opt/ros/humble/bin:/home/umrob/anaconda3/bin:/home/umrob/anaconda3/condabin:/home/umrob/.local/bin:/home/umrob/bin:/usr/local/sbin:/usr/local/bin:/usr/sbin:/usr/bin:/sbin:/bin:/usr/games:/usr/local/games:/snap/bin:/snap/bin:~/julia-1.9.3/bin'), ('SESSION_MANAGER', 'local/umrob-Latitude-5510:@/tmp/.ICE-unix/2973,unix/umrob-Latitude-5510:/tmp/.ICE-unix/2973'), ('PAPERSIZE', 'letter'), ('GTK3_MODULES', 'xapp-gtk3-module'), ('XDG_MENU_PREFIX', 'gnome-'), ('LC_ADDRESS', 'en_US.UTF-8'), ('GNOME_TERMINAL_SCREEN', '/org/gnome/Terminal/screen/f6db8bc5_fa9e_42d4_b621_5e033ed375d7'), ('XDG_RUNTIME_DIR', '/run/user/1000'), ('DISPLAY', ':1'), ('LANG', 'fr_FR.UTF-8'), ('XDG_CURRENT_DESKTOP', 'ubuntu:GNOME'), ('LC_TELEPHONE', 'en_US.UTF-8'), ('XMODIFIERS', '@im=ibus'), ('XDG_SESSION_DESKTOP', 'ubuntu'), ('XAUTHORITY', '/run/user/1000/gdm/Xauthority'), ('LS_COLORS', 'rs=0:di=01;34:ln=01;36:mh=00:pi=40;33:so=01;35:do=01;35:bd=40;33;01:cd=40;33;01:or=40;31;01:mi=00:su=37;41:sg=30;43:ca=30;41:tw=30;42:ow=34;42:st=37;44:ex=01;32:*.tar=01;31:*.tgz=01;31:*.arc=01;31:*.arj=01;31:*.taz=01;31:*.lha=01;31:*.lz4=01;31:*.lzh=01;31:*.lzma=01;31:*.tlz=01;31:*.txz=01;31:*.tzo=01;31:*.t7z=01;31:*.zip=01;31:*.z=01;31:*.dz=01;31:*.gz=01;31:*.lrz=01;31:*.lz=01;31:*.lzo=01;31:*.xz=01;31:*.zst=01;31:*.tzst=01;31:*.bz2=01;31:*.bz=01;31:*.tbz=01;31:*.tbz2=01;31:*.tz=01;31:*.deb=01;31:*.rpm=01;31:*.jar=01;31:*.war=01;31:*.ear=01;31:*.sar=01;31:*.rar=01;31:*.alz=01;31:*.ace=01;31:*.zoo=01;31:*.cpio=01;31:*.7z=01;31:*.rz=01;31:*.cab=01;31:*.wim=01;31:*.swm=01;31:*.dwm=01;31:*.esd=01;31:*.jpg=01;35:*.jpeg=01;35:*.mjpg=01;35:*.mjpeg=01;35:*.gif=01;35:*.bmp=01;35:*.pbm=01;35:*.pgm=01;35:*.ppm=01;35:*.tga=01;35:*.xbm=01;35:*.xpm=01;35:*.tif=01;35:*.tiff=01;35:*.png=01;35:*.svg=01;35:*.svgz=01;35:*.mng=01;35:*.pcx=01;35:*.mov=01;35:*.mpg=01;35:*.mpeg=01;35:*.m2v=01;35:*.mkv=01;35:*.webm=01;35:*.webp=01;35:*.ogm=01;35:*.mp4=01;35:*.m4v=01;35:*.mp4v=01;35:*.vob=01;35:*.qt=01;35:*.nuv=01;35:*.wmv=01;35:*.asf=01;35:*.rm=01;35:*.rmvb=01;35:*.flc=01;35:*.avi=01;35:*.fli=01;35:*.flv=01;35:*.gl=01;35:*.dl=01;35:*.xcf=01;35:*.xwd=01;35:*.yuv=01;35:*.cgm=01;35:*.emf=01;35:*.ogv=01;35:*.ogx=01;35:*.aac=00;36:*.au=00;36:*.flac=00;36:*.m4a=00;36:*.mid=00;36:*.midi=00;36:*.mka=00;36:*.mp3=00;36:*.mpc=00;36:*.ogg=00;36:*.ra=00;36:*.wav=00;36:*.oga=00;36:*.opus=00;36:*.spx=00;36:*.xspf=00;36:'), ('GNOME_TERMINAL_SERVICE', ':1.200'), ('SSH_AGENT_LAUNCHER', 'gnome-keyring'), ('SSH_AUTH_SOCK', '/run/user/1000/keyring/ssh'), ('AMENT_PREFIX_PATH', '/opt/ros/humble'), ('CONDA_PYTHON_EXE', '/home/umrob/anaconda3/bin/python'), ('SHELL', '/bin/bash'), ('LC_NAME', 'en_US.UTF-8'), ('QT_ACCESSIBILITY', '1'), ('GDMSESSION', 'ubuntu'), ('LESSCLOSE', '/usr/bin/lesspipe %s %s'), ('CONDA_DEFAULT_ENV', 'base'), ('LC_MEASUREMENT', 'en_US.UTF-8'), ('GPG_AGENT_INFO', '/run/user/1000/gnupg/S.gpg-agent:0:1'), ('LC_IDENTIFICATION', 'en_US.UTF-8'), ('QT_IM_MODULE', 'ibus'), ('PWD', '/home/umrob/M2/ros-2-planar-rob/build/ros2_planar_robot'), ('LC_ALL', 'en_US.UTF-8'), ('XDG_CONFIG_DIRS', '/etc/xdg/xdg-ubuntu:/etc/xdg'), ('CONDA_EXE', '/home/umrob/anaconda3/bin/conda'), ('XDG_DATA_DIRS', '/usr/share/ubuntu:/usr/share/gnome:/usr/local/share/:/usr/share/:/var/lib/snapd/desktop'), ('PYTHONPATH', '/opt/ros/humble/lib/python3.10/site-packages:/opt/ros/humble/local/lib/python3.10/dist-packages'), ('LC_NUMERIC', 'en_US.UTF-8'), ('CONDA_PREFIX', '/home/umrob/anaconda3'), ('LC_PAPER', 'en_US.UTF-8'), ('MKL_INTERFACE_LAYER', 'LP64,GNU'), ('COLCON', '1'), ('VTE_VERSION', '6800'), ('CMAKE_PREFIX_PATH', '/opt/ros/humble')]), 'shell': False}
[0.099458] (-) TimerEvent: {}
[0.200058] (-) TimerEvent: {}
[0.201476] (ros2_planar_robot) StdoutLine: {'line': b'[  1%] Built target ros2_planar_robot__cpp\n'}
[0.206634] (ros2_planar_robot) StdoutLine: {'line': b'[ 11%] Built target ros2_planar_robot__rosidl_generator_c\n'}
[0.233373] (ros2_planar_robot) StdoutLine: {'line': b'[ 14%] Built target trajectory_generation_lib\n'}
[0.234703] (ros2_planar_robot) StdoutLine: {'line': b'[ 14%] Built target ament_cmake_python_copy_ros2_planar_robot\n'}
[0.241181] (ros2_planar_robot) StdoutLine: {'line': b'[ 24%] Built target ros2_planar_robot__rosidl_typesupport_c\n'}
[0.242025] (ros2_planar_robot) StdoutLine: {'line': b'[ 35%] Built target ros2_planar_robot__rosidl_typesupport_cpp\n'}
[0.243736] (ros2_planar_robot) StdoutLine: {'line': b'[ 54%] Built target ros2_planar_robot__rosidl_typesupport_introspection_c\n'}
[0.243999] (ros2_planar_robot) StdoutLine: {'line': b'[ 55%] Built target ros2_planar_robot__rosidl_typesupport_introspection_cpp\n'}
[0.244188] (ros2_planar_robot) StdoutLine: {'line': b'[ 66%] Built target ros2_planar_robot__rosidl_typesupport_fastrtps_cpp\n'}
[0.248301] (ros2_planar_robot) StdoutLine: {'line': b'[ 76%] Built target ros2_planar_robot__rosidl_typesupport_fastrtps_c\n'}
[0.259111] (ros2_planar_robot) StdoutLine: {'line': b'\x1b[35m\x1b[1mConsolidate compiler generated dependencies of target high_lev_mng\x1b[0m\n'}
[0.266474] (ros2_planar_robot) StdoutLine: {'line': b'[ 76%] Built target ros2_planar_robot\n'}
[0.281453] (ros2_planar_robot) StdoutLine: {'line': b'[ 79%] Built target trajectory_generator\n'}
[0.281702] (ros2_planar_robot) StdoutLine: {'line': b'[ 80%] \x1b[32mBuilding CXX object CMakeFiles/high_lev_mng.dir/src/high_lev_mng.cpp.o\x1b[0m\n'}
[0.285909] (ros2_planar_robot) StdoutLine: {'line': b'[ 81%] Built target ros2_planar_robot__py\n'}
[0.300153] (-) TimerEvent: {}
[0.355844] (ros2_planar_robot) StdoutLine: {'line': b'[ 90%] Built target ros2_planar_robot__rosidl_generator_py\n'}
[0.387502] (ros2_planar_robot) StdoutLine: {'line': b'[ 96%] Built target ros2_planar_robot__rosidl_typesupport_introspection_c__pyext\n'}
[0.387763] (ros2_planar_robot) StdoutLine: {'line': b'[ 96%] Built target ros2_planar_robot__rosidl_typesupport_c__pyext\n'}
[0.387894] (ros2_planar_robot) StdoutLine: {'line': b'[ 98%] Built target ros2_planar_robot__rosidl_typesupport_fastrtps_c__pyext\n'}
[0.400264] (-) TimerEvent: {}
[0.498942] (ros2_planar_robot) StdoutLine: {'line': b'running egg_info\n'}
[0.499837] (ros2_planar_robot) StdoutLine: {'line': b'writing ros2_planar_robot.egg-info/PKG-INFO\n'}
[0.500063] (ros2_planar_robot) StdoutLine: {'line': b'writing dependency_links to ros2_planar_robot.egg-info/dependency_links.txt\n'}
[0.500208] (ros2_planar_robot) StdoutLine: {'line': b'writing top-level names to ros2_planar_robot.egg-info/top_level.txt\n'}
[0.500286] (-) TimerEvent: {}
[0.503205] (ros2_planar_robot) StdoutLine: {'line': b"reading manifest file 'ros2_planar_robot.egg-info/SOURCES.txt'\n"}
[0.504078] (ros2_planar_robot) StdoutLine: {'line': b"writing manifest file 'ros2_planar_robot.egg-info/SOURCES.txt'\n"}
[0.529286] (ros2_planar_robot) StdoutLine: {'line': b'[ 98%] Built target ament_cmake_python_build_ros2_planar_robot_egg\n'}
[0.600437] (-) TimerEvent: {}
[0.700756] (-) TimerEvent: {}
[0.801149] (-) TimerEvent: {}
[0.901498] (-) TimerEvent: {}
[1.002281] (-) TimerEvent: {}
[1.103519] (-) TimerEvent: {}
[1.203841] (-) TimerEvent: {}
[1.304165] (-) TimerEvent: {}
[1.404485] (-) TimerEvent: {}
[1.504815] (-) TimerEvent: {}
[1.605131] (-) TimerEvent: {}
[1.705459] (-) TimerEvent: {}
[1.805790] (-) TimerEvent: {}
[1.906147] (-) TimerEvent: {}
[2.006437] (-) TimerEvent: {}
[2.106769] (-) TimerEvent: {}
[2.207152] (-) TimerEvent: {}
[2.307486] (-) TimerEvent: {}
[2.407839] (-) TimerEvent: {}
[2.508198] (-) TimerEvent: {}
[2.608543] (-) TimerEvent: {}
[2.708891] (-) TimerEvent: {}
[2.809215] (-) TimerEvent: {}
[2.909512] (-) TimerEvent: {}
[3.009862] (-) TimerEvent: {}
[3.110194] (-) TimerEvent: {}
[3.210499] (-) TimerEvent: {}
[3.310842] (-) TimerEvent: {}
[3.411155] (-) TimerEvent: {}
[3.511502] (-) TimerEvent: {}
[3.611820] (-) TimerEvent: {}
[3.712153] (-) TimerEvent: {}
[3.812478] (-) TimerEvent: {}
[3.912818] (-) TimerEvent: {}
[4.013160] (-) TimerEvent: {}
[4.113516] (-) TimerEvent: {}
[4.213876] (-) TimerEvent: {}
[4.314195] (-) TimerEvent: {}
[4.414539] (-) TimerEvent: {}
[4.514879] (-) TimerEvent: {}
[4.615208] (-) TimerEvent: {}
[4.715532] (-) TimerEvent: {}
[4.815851] (-) TimerEvent: {}
[4.916190] (-) TimerEvent: {}
[5.016564] (-) TimerEvent: {}
[5.116891] (-) TimerEvent: {}
[5.217204] (-) TimerEvent: {}
[5.317538] (-) TimerEvent: {}
[5.417896] (-) TimerEvent: {}
[5.518281] (-) TimerEvent: {}
[5.618625] (-) TimerEvent: {}
[5.718995] (-) TimerEvent: {}
[5.819348] (-) TimerEvent: {}
[5.919695] (-) TimerEvent: {}
[6.020060] (-) TimerEvent: {}
[6.120467] (-) TimerEvent: {}
[6.220855] (-) TimerEvent: {}
[6.321225] (-) TimerEvent: {}
[6.421550] (-) TimerEvent: {}
[6.521869] (-) TimerEvent: {}
[6.622189] (-) TimerEvent: {}
[6.722515] (-) TimerEvent: {}
[6.822834] (-) TimerEvent: {}
[6.923165] (-) TimerEvent: {}
[7.023477] (-) TimerEvent: {}
[7.123782] (-) TimerEvent: {}
[7.224099] (-) TimerEvent: {}
[7.324415] (-) TimerEvent: {}
[7.424725] (-) TimerEvent: {}
[7.525036] (-) TimerEvent: {}
[7.625400] (-) TimerEvent: {}
[7.725709] (-) TimerEvent: {}
[7.826085] (-) TimerEvent: {}
[7.926396] (-) TimerEvent: {}
[8.026705] (-) TimerEvent: {}
[8.127015] (-) TimerEvent: {}
[8.227372] (-) TimerEvent: {}
[8.327676] (-) TimerEvent: {}
[8.427980] (-) TimerEvent: {}
[8.528290] (-) TimerEvent: {}
[8.628606] (-) TimerEvent: {}
[8.728931] (-) TimerEvent: {}
[8.829297] (-) TimerEvent: {}
[8.929685] (-) TimerEvent: {}
[9.030123] (-) TimerEvent: {}
[9.130502] (-) TimerEvent: {}
[9.230881] (-) TimerEvent: {}
[9.331214] (-) TimerEvent: {}
[9.431494] (-) TimerEvent: {}
[9.531888] (-) TimerEvent: {}
[9.632249] (-) TimerEvent: {}
[9.732603] (-) TimerEvent: {}
[9.833000] (-) TimerEvent: {}
[9.910481] (ros2_planar_robot) StdoutLine: {'line': b'[100%] \x1b[32m\x1b[1mLinking CXX executable high_lev_mng\x1b[0m\n'}
[9.933130] (-) TimerEvent: {}
[10.033448] (-) TimerEvent: {}
[10.133807] (-) TimerEvent: {}
[10.234101] (-) TimerEvent: {}
[10.334397] (-) TimerEvent: {}
[10.359618] (ros2_planar_robot) StdoutLine: {'line': b'[100%] Built target high_lev_mng\n'}
[10.370937] (ros2_planar_robot) CommandEnded: {'returncode': 0}
[10.434474] (-) TimerEvent: {}
[10.480975] (ros2_planar_robot) JobProgress: {'identifier': 'ros2_planar_robot', 'progress': 'install'}
[10.489617] (ros2_planar_robot) Command: {'cmd': ['/usr/bin/cmake', '--install', '/home/umrob/M2/ros-2-planar-rob/build/ros2_planar_robot'], 'cwd': '/home/umrob/M2/ros-2-planar-rob/build/ros2_planar_robot', 'env': OrderedDict([('LESSOPEN', '| /usr/bin/lesspipe %s'), ('CONDA_PROMPT_MODIFIER', '(base)'), ('LANGUAGE', 'fr_FR:en'), ('USER', 'umrob'), ('LC_TIME', 'en_US.UTF-8'), ('CONDA_MKL_INTERFACE_LAYER_BACKUP', ''), ('XDG_SESSION_TYPE', 'x11'), ('SHLVL', '1'), ('LD_LIBRARY_PATH', '/opt/ros/humble/opt/rviz_ogre_vendor/lib:/opt/ros/humble/lib/x86_64-linux-gnu:/opt/ros/humble/lib'), ('HOME', '/home/umrob'), ('CONDA_SHLVL', '1'), ('OLDPWD', '/home/umrob/M2'), ('DESKTOP_SESSION', 'ubuntu'), ('ROS_PYTHON_VERSION', '3'), ('GNOME_SHELL_SESSION_MODE', 'ubuntu'), ('GTK_MODULES', 'gail:atk-bridge'), ('LC_MONETARY', 'en_US.UTF-8'), ('SYSTEMD_EXEC_PID', '2992'), ('DBUS_SESSION_BUS_ADDRESS', 'unix:path=/run/user/1000/bus'), ('COLORTERM', 'truecolor'), ('_CE_M', ''), ('IM_CONFIG_PHASE', '1'), ('ROS_DISTRO', 'humble'), ('GTK_IM_MODULE', 'ibus'), ('LOGNAME', 'umrob'), ('_', '/usr/bin/colcon'), ('ROS_VERSION', '2'), ('XDG_SESSION_CLASS', 'user'), ('USERNAME', 'umrob'), ('TERM', 'xterm-256color'), ('GNOME_DESKTOP_SESSION_ID', 'this-is-deprecated'), ('_CE_CONDA', ''), ('ROS_LOCALHOST_ONLY', '1'), ('WINDOWPATH', '2'), ('PATH', '/opt/ros/humble/bin:/home/umrob/anaconda3/bin:/home/umrob/anaconda3/condabin:/home/umrob/.local/bin:/home/umrob/bin:/usr/local/sbin:/usr/local/bin:/usr/sbin:/usr/bin:/sbin:/bin:/usr/games:/usr/local/games:/snap/bin:/snap/bin:~/julia-1.9.3/bin'), ('SESSION_MANAGER', 'local/umrob-Latitude-5510:@/tmp/.ICE-unix/2973,unix/umrob-Latitude-5510:/tmp/.ICE-unix/2973'), ('PAPERSIZE', 'letter'), ('GTK3_MODULES', 'xapp-gtk3-module'), ('XDG_MENU_PREFIX', 'gnome-'), ('LC_ADDRESS', 'en_US.UTF-8'), ('GNOME_TERMINAL_SCREEN', '/org/gnome/Terminal/screen/f6db8bc5_fa9e_42d4_b621_5e033ed375d7'), ('XDG_RUNTIME_DIR', '/run/user/1000'), ('DISPLAY', ':1'), ('LANG', 'fr_FR.UTF-8'), ('XDG_CURRENT_DESKTOP', 'ubuntu:GNOME'), ('LC_TELEPHONE', 'en_US.UTF-8'), ('XMODIFIERS', '@im=ibus'), ('XDG_SESSION_DESKTOP', 'ubuntu'), ('XAUTHORITY', '/run/user/1000/gdm/Xauthority'), ('LS_COLORS', 'rs=0:di=01;34:ln=01;36:mh=00:pi=40;33:so=01;35:do=01;35:bd=40;33;01:cd=40;33;01:or=40;31;01:mi=00:su=37;41:sg=30;43:ca=30;41:tw=30;42:ow=34;42:st=37;44:ex=01;32:*.tar=01;31:*.tgz=01;31:*.arc=01;31:*.arj=01;31:*.taz=01;31:*.lha=01;31:*.lz4=01;31:*.lzh=01;31:*.lzma=01;31:*.tlz=01;31:*.txz=01;31:*.tzo=01;31:*.t7z=01;31:*.zip=01;31:*.z=01;31:*.dz=01;31:*.gz=01;31:*.lrz=01;31:*.lz=01;31:*.lzo=01;31:*.xz=01;31:*.zst=01;31:*.tzst=01;31:*.bz2=01;31:*.bz=01;31:*.tbz=01;31:*.tbz2=01;31:*.tz=01;31:*.deb=01;31:*.rpm=01;31:*.jar=01;31:*.war=01;31:*.ear=01;31:*.sar=01;31:*.rar=01;31:*.alz=01;31:*.ace=01;31:*.zoo=01;31:*.cpio=01;31:*.7z=01;31:*.rz=01;31:*.cab=01;31:*.wim=01;31:*.swm=01;31:*.dwm=01;31:*.esd=01;31:*.jpg=01;35:*.jpeg=01;35:*.mjpg=01;35:*.mjpeg=01;35:*.gif=01;35:*.bmp=01;35:*.pbm=01;35:*.pgm=01;35:*.ppm=01;35:*.tga=01;35:*.xbm=01;35:*.xpm=01;35:*.tif=01;35:*.tiff=01;35:*.png=01;35:*.svg=01;35:*.svgz=01;35:*.mng=01;35:*.pcx=01;35:*.mov=01;35:*.mpg=01;35:*.mpeg=01;35:*.m2v=01;35:*.mkv=01;35:*.webm=01;35:*.webp=01;35:*.ogm=01;35:*.mp4=01;35:*.m4v=01;35:*.mp4v=01;35:*.vob=01;35:*.qt=01;35:*.nuv=01;35:*.wmv=01;35:*.asf=01;35:*.rm=01;35:*.rmvb=01;35:*.flc=01;35:*.avi=01;35:*.fli=01;35:*.flv=01;35:*.gl=01;35:*.dl=01;35:*.xcf=01;35:*.xwd=01;35:*.yuv=01;35:*.cgm=01;35:*.emf=01;35:*.ogv=01;35:*.ogx=01;35:*.aac=00;36:*.au=00;36:*.flac=00;36:*.m4a=00;36:*.mid=00;36:*.midi=00;36:*.mka=00;36:*.mp3=00;36:*.mpc=00;36:*.ogg=00;36:*.ra=00;36:*.wav=00;36:*.oga=00;36:*.opus=00;36:*.spx=00;36:*.xspf=00;36:'), ('GNOME_TERMINAL_SERVICE', ':1.200'), ('SSH_AGENT_LAUNCHER', 'gnome-keyring'), ('SSH_AUTH_SOCK', '/run/user/1000/keyring/ssh'), ('AMENT_PREFIX_PATH', '/opt/ros/humble'), ('CONDA_PYTHON_EXE', '/home/umrob/anaconda3/bin/python'), ('SHELL', '/bin/bash'), ('LC_NAME', 'en_US.UTF-8'), ('QT_ACCESSIBILITY', '1'), ('GDMSESSION', 'ubuntu'), ('LESSCLOSE', '/usr/bin/lesspipe %s %s'), ('CONDA_DEFAULT_ENV', 'base'), ('LC_MEASUREMENT', 'en_US.UTF-8'), ('GPG_AGENT_INFO', '/run/user/1000/gnupg/S.gpg-agent:0:1'), ('LC_IDENTIFICATION', 'en_US.UTF-8'), ('QT_IM_MODULE', 'ibus'), ('PWD', '/home/umrob/M2/ros-2-planar-rob/build/ros2_planar_robot'), ('LC_ALL', 'en_US.UTF-8'), ('XDG_CONFIG_DIRS', '/etc/xdg/xdg-ubuntu:/etc/xdg'), ('CONDA_EXE', '/home/umrob/anaconda3/bin/conda'), ('XDG_DATA_DIRS', '/usr/share/ubuntu:/usr/share/gnome:/usr/local/share/:/usr/share/:/var/lib/snapd/desktop'), ('PYTHONPATH', '/opt/ros/humble/lib/python3.10/site-packages:/opt/ros/humble/local/lib/python3.10/dist-packages'), ('LC_NUMERIC', 'en_US.UTF-8'), ('CONDA_PREFIX', '/home/umrob/anaconda3'), ('LC_PAPER', 'en_US.UTF-8'), ('MKL_INTERFACE_LAYER', 'LP64,GNU'), ('COLCON', '1'), ('VTE_VERSION', '6800'), ('CMAKE_PREFIX_PATH', '/opt/ros/humble')]), 'shell': False}
[10.502983] (ros2_planar_robot) StdoutLine: {'line': b'-- Install configuration: ""\n'}
[10.504095] (ros2_planar_robot) StdoutLine: {'line': b'-- Up-to-date: /home/umrob/M2/ros-2-planar-rob/install/ros2_planar_robot/share/ament_index/resource_index/rosidl_interfaces/ros2_planar_robot\n'}
[10.504872] (ros2_planar_robot) StdoutLine: {'line': b'-- Up-to-date: /home/umrob/M2/ros-2-planar-rob/install/ros2_planar_robot/include/ros2_planar_robot/ros2_planar_robot\n'}
[10.506035] (ros2_planar_robot) StdoutLine: {'line': b'-- Up-to-date: /home/umrob/M2/ros-2-planar-rob/install/ros2_planar_robot/include/ros2_planar_robot/ros2_planar_robot/msg\n'}
[10.506930] (ros2_planar_robot) StdoutLine: {'line': b'-- Up-to-date: /home/umrob/M2/ros-2-planar-rob/install/ros2_planar_robot/include/ros2_planar_robot/ros2_planar_robot/msg/detail\n'}
[10.507830] (ros2_planar_robot) StdoutLine: {'line': b'-- Up-to-date: /home/umrob/M2/ros-2-planar-rob/install/ros2_planar_robot/include/ros2_planar_robot/ros2_planar_robot/msg/detail/velocity__type_support.h\n'}
[10.508315] (ros2_planar_robot) StdoutLine: {'line': b'-- Up-to-date: /home/umrob/M2/ros-2-planar-rob/install/ros2_planar_robot/include/ros2_planar_robot/ros2_planar_robot/msg/detail/ref_pose__functions.c\n'}
[10.508885] (ros2_planar_robot) StdoutLine: {'line': b'-- Up-to-date: /home/umrob/M2/ros-2-planar-rob/install/ros2_planar_robot/include/ros2_planar_robot/ros2_planar_robot/msg/detail/cartesian_state__functions.h\n'}
[10.509186] (ros2_planar_robot) StdoutLine: {'line': b'-- Up-to-date: /home/umrob/M2/ros-2-planar-rob/install/ros2_planar_robot/include/ros2_planar_robot/ros2_planar_robot/msg/detail/pose__functions.c\n'}
[10.509473] (ros2_planar_robot) StdoutLine: {'line': b'-- Up-to-date: /home/umrob/M2/ros-2-planar-rob/install/ros2_planar_robot/include/ros2_planar_robot/ros2_planar_robot/msg/detail/pose__type_support.h\n'}
[10.509751] (ros2_planar_robot) StdoutLine: {'line': b'-- Up-to-date: /home/umrob/M2/ros-2-planar-rob/install/ros2_planar_robot/include/ros2_planar_robot/ros2_planar_robot/msg/detail/velocity__functions.c\n'}
[10.510132] (ros2_planar_robot) StdoutLine: {'line': b'-- Up-to-date: /home/umrob/M2/ros-2-planar-rob/install/ros2_planar_robot/include/ros2_planar_robot/ros2_planar_robot/msg/detail/kin_data__struct.h\n'}
[10.510581] (ros2_planar_robot) StdoutLine: {'line': b'-- Up-to-date: /home/umrob/M2/ros-2-planar-rob/install/ros2_planar_robot/include/ros2_planar_robot/ros2_planar_robot/msg/detail/kin_data__functions.h\n'}
[10.510869] (ros2_planar_robot) StdoutLine: {'line': b'-- Up-to-date: /home/umrob/M2/ros-2-planar-rob/install/ros2_planar_robot/include/ros2_planar_robot/ros2_planar_robot/msg/detail/kin_data__functions.c\n'}
[10.511567] (ros2_planar_robot) StdoutLine: {'line': b'-- Up-to-date: /home/umrob/M2/ros-2-planar-rob/install/ros2_planar_robot/include/ros2_planar_robot/ros2_planar_robot/msg/detail/ref_pose__type_support.h\n'}
[10.512208] (ros2_planar_robot) StdoutLine: {'line': b'-- Up-to-date: /home/umrob/M2/ros-2-planar-rob/install/ros2_planar_robot/include/ros2_planar_robot/ros2_planar_robot/msg/detail/velocity__struct.h\n'}
[10.512529] (ros2_planar_robot) StdoutLine: {'line': b'-- Up-to-date: /home/umrob/M2/ros-2-planar-rob/install/ros2_planar_robot/include/ros2_planar_robot/ros2_planar_robot/msg/detail/ref_pose__functions.h\n'}
[10.512809] (ros2_planar_robot) StdoutLine: {'line': b'-- Up-to-date: /home/umrob/M2/ros-2-planar-rob/install/ros2_planar_robot/include/ros2_planar_robot/ros2_planar_robot/msg/detail/velocity__functions.h\n'}
[10.513276] (ros2_planar_robot) StdoutLine: {'line': b'-- Up-to-date: /home/umrob/M2/ros-2-planar-rob/install/ros2_planar_robot/include/ros2_planar_robot/ros2_planar_robot/msg/detail/cartesian_state__struct.h\n'}
[10.513596] (ros2_planar_robot) StdoutLine: {'line': b'-- Up-to-date: /home/umrob/M2/ros-2-planar-rob/install/ros2_planar_robot/include/ros2_planar_robot/ros2_planar_robot/msg/detail/ref_pose__struct.h\n'}
[10.514293] (ros2_planar_robot) StdoutLine: {'line': b'-- Up-to-date: /home/umrob/M2/ros-2-planar-rob/install/ros2_planar_robot/include/ros2_planar_robot/ros2_planar_robot/msg/detail/cartesian_state__functions.c\n'}
[10.515284] (ros2_planar_robot) StdoutLine: {'line': b'-- Up-to-date: /home/umrob/M2/ros-2-planar-rob/install/ros2_planar_robot/include/ros2_planar_robot/ros2_planar_robot/msg/detail/pose__struct.h\n'}
[10.516234] (ros2_planar_robot) StdoutLine: {'line': b'-- Up-to-date: /home/umrob/M2/ros-2-planar-rob/install/ros2_planar_robot/include/ros2_planar_robot/ros2_planar_robot/msg/detail/cartesian_state__type_support.h\n'}
[10.516989] (ros2_planar_robot) StdoutLine: {'line': b'-- Up-to-date: /home/umrob/M2/ros-2-planar-rob/install/ros2_planar_robot/include/ros2_planar_robot/ros2_planar_robot/msg/detail/pose__functions.h\n'}
[10.517665] (ros2_planar_robot) StdoutLine: {'line': b'-- Up-to-date: /home/umrob/M2/ros-2-planar-rob/install/ros2_planar_robot/include/ros2_planar_robot/ros2_planar_robot/msg/detail/kin_data__type_support.h\n'}
[10.518658] (ros2_planar_robot) StdoutLine: {'line': b'-- Up-to-date: /home/umrob/M2/ros-2-planar-rob/install/ros2_planar_robot/include/ros2_planar_robot/ros2_planar_robot/msg/velocity.h\n'}
[10.518970] (ros2_planar_robot) StdoutLine: {'line': b'-- Up-to-date: /home/umrob/M2/ros-2-planar-rob/install/ros2_planar_robot/include/ros2_planar_robot/ros2_planar_robot/msg/pose.h\n'}
[10.519259] (ros2_planar_robot) StdoutLine: {'line': b'-- Up-to-date: /home/umrob/M2/ros-2-planar-rob/install/ros2_planar_robot/include/ros2_planar_robot/ros2_planar_robot/msg/ref_pose.h\n'}
[10.519537] (ros2_planar_robot) StdoutLine: {'line': b'-- Up-to-date: /home/umrob/M2/ros-2-planar-rob/install/ros2_planar_robot/include/ros2_planar_robot/ros2_planar_robot/msg/cartesian_state.h\n'}
[10.519911] (ros2_planar_robot) StdoutLine: {'line': b'-- Up-to-date: /home/umrob/M2/ros-2-planar-rob/install/ros2_planar_robot/include/ros2_planar_robot/ros2_planar_robot/msg/rosidl_generator_c__visibility_control.h\n'}
[10.520285] (ros2_planar_robot) StdoutLine: {'line': b'-- Up-to-date: /home/umrob/M2/ros-2-planar-rob/install/ros2_planar_robot/include/ros2_planar_robot/ros2_planar_robot/msg/kin_data.h\n'}
[10.521299] (ros2_planar_robot) StdoutLine: {'line': b'-- Up-to-date: /home/umrob/M2/ros-2-planar-rob/install/ros2_planar_robot/include/ros2_planar_robot/ros2_planar_robot/srv\n'}
[10.522151] (ros2_planar_robot) StdoutLine: {'line': b'-- Up-to-date: /home/umrob/M2/ros-2-planar-rob/install/ros2_planar_robot/include/ros2_planar_robot/ros2_planar_robot/srv/detail\n'}
[10.522450] (ros2_planar_robot) StdoutLine: {'line': b'-- Up-to-date: /home/umrob/M2/ros-2-planar-rob/install/ros2_planar_robot/include/ros2_planar_robot/ros2_planar_robot/srv/detail/data__functions.c\n'}
[10.522634] (ros2_planar_robot) StdoutLine: {'line': b'-- Up-to-date: /home/umrob/M2/ros-2-planar-rob/install/ros2_planar_robot/include/ros2_planar_robot/ros2_planar_robot/srv/detail/data__functions.h\n'}
[10.522812] (ros2_planar_robot) StdoutLine: {'line': b'-- Up-to-date: /home/umrob/M2/ros-2-planar-rob/install/ros2_planar_robot/include/ros2_planar_robot/ros2_planar_robot/srv/detail/data__struct.h\n'}
[10.523020] (ros2_planar_robot) StdoutLine: {'line': b'-- Up-to-date: /home/umrob/M2/ros-2-planar-rob/install/ros2_planar_robot/include/ros2_planar_robot/ros2_planar_robot/srv/detail/data__type_support.h\n'}
[10.523330] (ros2_planar_robot) StdoutLine: {'line': b'-- Up-to-date: /home/umrob/M2/ros-2-planar-rob/install/ros2_planar_robot/include/ros2_planar_robot/ros2_planar_robot/srv/data.h\n'}
[10.523525] (ros2_planar_robot) StdoutLine: {'line': b'-- Up-to-date: /home/umrob/M2/ros-2-planar-rob/install/ros2_planar_robot/share/ros2_planar_robot/environment/library_path.sh\n'}
[10.523721] (ros2_planar_robot) StdoutLine: {'line': b'-- Up-to-date: /home/umrob/M2/ros-2-planar-rob/install/ros2_planar_robot/share/ros2_planar_robot/environment/library_path.dsv\n'}
[10.523896] (ros2_planar_robot) StdoutLine: {'line': b'-- Up-to-date: /home/umrob/M2/ros-2-planar-rob/install/ros2_planar_robot/lib/libros2_planar_robot__rosidl_generator_c.so\n'}
[10.524136] (ros2_planar_robot) StdoutLine: {'line': b'-- Up-to-date: /home/umrob/M2/ros-2-planar-rob/install/ros2_planar_robot/include/ros2_planar_robot/ros2_planar_robot\n'}
[10.524589] (ros2_planar_robot) StdoutLine: {'line': b'-- Up-to-date: /home/umrob/M2/ros-2-planar-rob/install/ros2_planar_robot/include/ros2_planar_robot/ros2_planar_robot/msg\n'}
[10.525164] (ros2_planar_robot) StdoutLine: {'line': b'-- Up-to-date: /home/umrob/M2/ros-2-planar-rob/install/ros2_planar_robot/include/ros2_planar_robot/ros2_planar_robot/msg/detail\n'}
[10.525628] (ros2_planar_robot) StdoutLine: {'line': b'-- Up-to-date: /home/umrob/M2/ros-2-planar-rob/install/ros2_planar_robot/include/ros2_planar_robot/ros2_planar_robot/msg/detail/pose__rosidl_typesupport_fastrtps_c.h\n'}
[10.525847] (ros2_planar_robot) StdoutLine: {'line': b'-- Up-to-date: /home/umrob/M2/ros-2-planar-rob/install/ros2_planar_robot/include/ros2_planar_robot/ros2_planar_robot/msg/detail/ref_pose__rosidl_typesupport_fastrtps_c.h\n'}
[10.526047] (ros2_planar_robot) StdoutLine: {'line': b'-- Up-to-date: /home/umrob/M2/ros-2-planar-rob/install/ros2_planar_robot/include/ros2_planar_robot/ros2_planar_robot/msg/detail/cartesian_state__rosidl_typesupport_fastrtps_c.h\n'}
[10.526257] (ros2_planar_robot) StdoutLine: {'line': b'-- Up-to-date: /home/umrob/M2/ros-2-planar-rob/install/ros2_planar_robot/include/ros2_planar_robot/ros2_planar_robot/msg/detail/velocity__rosidl_typesupport_fastrtps_c.h\n'}
[10.526432] (ros2_planar_robot) StdoutLine: {'line': b'-- Up-to-date: /home/umrob/M2/ros-2-planar-rob/install/ros2_planar_robot/include/ros2_planar_robot/ros2_planar_robot/msg/detail/kin_data__rosidl_typesupport_fastrtps_c.h\n'}
[10.526662] (ros2_planar_robot) StdoutLine: {'line': b'-- Up-to-date: /home/umrob/M2/ros-2-planar-rob/install/ros2_planar_robot/include/ros2_planar_robot/ros2_planar_robot/msg/rosidl_typesupport_fastrtps_c__visibility_control.h\n'}
[10.526933] (ros2_planar_robot) StdoutLine: {'line': b'-- Up-to-date: /home/umrob/M2/ros-2-planar-rob/install/ros2_planar_robot/include/ros2_planar_robot/ros2_planar_robot/srv\n'}
[10.527120] (ros2_planar_robot) StdoutLine: {'line': b'-- Up-to-date: /home/umrob/M2/ros-2-planar-rob/install/ros2_planar_robot/include/ros2_planar_robot/ros2_planar_robot/srv/detail\n'}
[10.527250] (ros2_planar_robot) StdoutLine: {'line': b'-- Up-to-date: /home/umrob/M2/ros-2-planar-rob/install/ros2_planar_robot/include/ros2_planar_robot/ros2_planar_robot/srv/detail/data__rosidl_typesupport_fastrtps_c.h\n'}
[10.527417] (ros2_planar_robot) StdoutLine: {'line': b'-- Up-to-date: /home/umrob/M2/ros-2-planar-rob/install/ros2_planar_robot/lib/libros2_planar_robot__rosidl_typesupport_fastrtps_c.so\n'}
[10.527645] (ros2_planar_robot) StdoutLine: {'line': b'-- Up-to-date: /home/umrob/M2/ros-2-planar-rob/install/ros2_planar_robot/include/ros2_planar_robot/ros2_planar_robot\n'}
[10.527995] (ros2_planar_robot) StdoutLine: {'line': b'-- Up-to-date: /home/umrob/M2/ros-2-planar-rob/install/ros2_planar_robot/include/ros2_planar_robot/ros2_planar_robot/msg\n'}
[10.528141] (ros2_planar_robot) StdoutLine: {'line': b'-- Up-to-date: /home/umrob/M2/ros-2-planar-rob/install/ros2_planar_robot/include/ros2_planar_robot/ros2_planar_robot/msg/detail\n'}
[10.528346] (ros2_planar_robot) StdoutLine: {'line': b'-- Up-to-date: /home/umrob/M2/ros-2-planar-rob/install/ros2_planar_robot/include/ros2_planar_robot/ros2_planar_robot/msg/detail/cartesian_state__struct.hpp\n'}
[10.528555] (ros2_planar_robot) StdoutLine: {'line': b'-- Up-to-date: /home/umrob/M2/ros-2-planar-rob/install/ros2_planar_robot/include/ros2_planar_robot/ros2_planar_robot/msg/detail/velocity__traits.hpp\n'}
[10.528777] (ros2_planar_robot) StdoutLine: {'line': b'-- Up-to-date: /home/umrob/M2/ros-2-planar-rob/install/ros2_planar_robot/include/ros2_planar_robot/ros2_planar_robot/msg/detail/kin_data__traits.hpp\n'}
[10.528925] (ros2_planar_robot) StdoutLine: {'line': b'-- Up-to-date: /home/umrob/M2/ros-2-planar-rob/install/ros2_planar_robot/include/ros2_planar_robot/ros2_planar_robot/msg/detail/kin_data__struct.hpp\n'}
[10.529195] (ros2_planar_robot) StdoutLine: {'line': b'-- Up-to-date: /home/umrob/M2/ros-2-planar-rob/install/ros2_planar_robot/include/ros2_planar_robot/ros2_planar_robot/msg/detail/ref_pose__traits.hpp\n'}
[10.529627] (ros2_planar_robot) StdoutLine: {'line': b'-- Up-to-date: /home/umrob/M2/ros-2-planar-rob/install/ros2_planar_robot/include/ros2_planar_robot/ros2_planar_robot/msg/detail/kin_data__builder.hpp\n'}
[10.530073] (ros2_planar_robot) StdoutLine: {'line': b'-- Up-to-date: /home/umrob/M2/ros-2-planar-rob/install/ros2_planar_robot/include/ros2_planar_robot/ros2_planar_robot/msg/detail/ref_pose__builder.hpp\n'}
[10.530321] (ros2_planar_robot) StdoutLine: {'line': b'-- Up-to-date: /home/umrob/M2/ros-2-planar-rob/install/ros2_planar_robot/include/ros2_planar_robot/ros2_planar_robot/msg/detail/pose__traits.hpp\n'}
[10.530460] (ros2_planar_robot) StdoutLine: {'line': b'-- Up-to-date: /home/umrob/M2/ros-2-planar-rob/install/ros2_planar_robot/include/ros2_planar_robot/ros2_planar_robot/msg/detail/cartesian_state__traits.hpp\n'}
[10.530593] (ros2_planar_robot) StdoutLine: {'line': b'-- Up-to-date: /home/umrob/M2/ros-2-planar-rob/install/ros2_planar_robot/include/ros2_planar_robot/ros2_planar_robot/msg/detail/ref_pose__struct.hpp\n'}
[10.530721] (ros2_planar_robot) StdoutLine: {'line': b'-- Up-to-date: /home/umrob/M2/ros-2-planar-rob/install/ros2_planar_robot/include/ros2_planar_robot/ros2_planar_robot/msg/detail/pose__builder.hpp\n'}
[10.530850] (ros2_planar_robot) StdoutLine: {'line': b'-- Up-to-date: /home/umrob/M2/ros-2-planar-rob/install/ros2_planar_robot/include/ros2_planar_robot/ros2_planar_robot/msg/detail/pose__struct.hpp\n'}
[10.530981] (ros2_planar_robot) StdoutLine: {'line': b'-- Up-to-date: /home/umrob/M2/ros-2-planar-rob/install/ros2_planar_robot/include/ros2_planar_robot/ros2_planar_robot/msg/detail/cartesian_state__builder.hpp\n'}
[10.531111] (ros2_planar_robot) StdoutLine: {'line': b'-- Up-to-date: /home/umrob/M2/ros-2-planar-rob/install/ros2_planar_robot/include/ros2_planar_robot/ros2_planar_robot/msg/detail/velocity__builder.hpp\n'}
[10.531240] (ros2_planar_robot) StdoutLine: {'line': b'-- Up-to-date: /home/umrob/M2/ros-2-planar-rob/install/ros2_planar_robot/include/ros2_planar_robot/ros2_planar_robot/msg/detail/velocity__struct.hpp\n'}
[10.531368] (ros2_planar_robot) StdoutLine: {'line': b'-- Up-to-date: /home/umrob/M2/ros-2-planar-rob/install/ros2_planar_robot/include/ros2_planar_robot/ros2_planar_robot/msg/ref_pose.hpp\n'}
[10.531498] (ros2_planar_robot) StdoutLine: {'line': b'-- Up-to-date: /home/umrob/M2/ros-2-planar-rob/install/ros2_planar_robot/include/ros2_planar_robot/ros2_planar_robot/msg/cartesian_state.hpp\n'}
[10.531627] (ros2_planar_robot) StdoutLine: {'line': b'-- Up-to-date: /home/umrob/M2/ros-2-planar-rob/install/ros2_planar_robot/include/ros2_planar_robot/ros2_planar_robot/msg/kin_data.hpp\n'}
[10.531777] (ros2_planar_robot) StdoutLine: {'line': b'-- Up-to-date: /home/umrob/M2/ros-2-planar-rob/install/ros2_planar_robot/include/ros2_planar_robot/ros2_planar_robot/msg/pose.hpp\n'}
[10.531907] (ros2_planar_robot) StdoutLine: {'line': b'-- Up-to-date: /home/umrob/M2/ros-2-planar-rob/install/ros2_planar_robot/include/ros2_planar_robot/ros2_planar_robot/msg/velocity.hpp\n'}
[10.532034] (ros2_planar_robot) StdoutLine: {'line': b'-- Up-to-date: /home/umrob/M2/ros-2-planar-rob/install/ros2_planar_robot/include/ros2_planar_robot/ros2_planar_robot/srv\n'}
[10.532157] (ros2_planar_robot) StdoutLine: {'line': b'-- Up-to-date: /home/umrob/M2/ros-2-planar-rob/install/ros2_planar_robot/include/ros2_planar_robot/ros2_planar_robot/srv/detail\n'}
[10.532271] (ros2_planar_robot) StdoutLine: {'line': b'-- Up-to-date: /home/umrob/M2/ros-2-planar-rob/install/ros2_planar_robot/include/ros2_planar_robot/ros2_planar_robot/srv/detail/data__struct.hpp\n'}
[10.532373] (ros2_planar_robot) StdoutLine: {'line': b'-- Up-to-date: /home/umrob/M2/ros-2-planar-rob/install/ros2_planar_robot/include/ros2_planar_robot/ros2_planar_robot/srv/detail/data__builder.hpp\n'}
[10.532475] (ros2_planar_robot) StdoutLine: {'line': b'-- Up-to-date: /home/umrob/M2/ros-2-planar-rob/install/ros2_planar_robot/include/ros2_planar_robot/ros2_planar_robot/srv/detail/data__traits.hpp\n'}
[10.532577] (ros2_planar_robot) StdoutLine: {'line': b'-- Up-to-date: /home/umrob/M2/ros-2-planar-rob/install/ros2_planar_robot/include/ros2_planar_robot/ros2_planar_robot/srv/data.hpp\n'}
[10.532678] (ros2_planar_robot) StdoutLine: {'line': b'-- Up-to-date: /home/umrob/M2/ros-2-planar-rob/install/ros2_planar_robot/include/ros2_planar_robot/ros2_planar_robot\n'}
[10.532780] (ros2_planar_robot) StdoutLine: {'line': b'-- Up-to-date: /home/umrob/M2/ros-2-planar-rob/install/ros2_planar_robot/include/ros2_planar_robot/ros2_planar_robot/msg\n'}
[10.532888] (ros2_planar_robot) StdoutLine: {'line': b'-- Up-to-date: /home/umrob/M2/ros-2-planar-rob/install/ros2_planar_robot/include/ros2_planar_robot/ros2_planar_robot/msg/detail\n'}
[10.532991] (ros2_planar_robot) StdoutLine: {'line': b'-- Up-to-date: /home/umrob/M2/ros-2-planar-rob/install/ros2_planar_robot/include/ros2_planar_robot/ros2_planar_robot/msg/detail/velocity__rosidl_typesupport_fastrtps_cpp.hpp\n'}
[10.533094] (ros2_planar_robot) StdoutLine: {'line': b'-- Up-to-date: /home/umrob/M2/ros-2-planar-rob/install/ros2_planar_robot/include/ros2_planar_robot/ros2_planar_robot/msg/detail/pose__rosidl_typesupport_fastrtps_cpp.hpp\n'}
[10.533197] (ros2_planar_robot) StdoutLine: {'line': b'-- Up-to-date: /home/umrob/M2/ros-2-planar-rob/install/ros2_planar_robot/include/ros2_planar_robot/ros2_planar_robot/msg/detail/dds_fastrtps\n'}
[10.533299] (ros2_planar_robot) StdoutLine: {'line': b'-- Up-to-date: /home/umrob/M2/ros-2-planar-rob/install/ros2_planar_robot/include/ros2_planar_robot/ros2_planar_robot/msg/detail/cartesian_state__rosidl_typesupport_fastrtps_cpp.hpp\n'}
[10.533403] (ros2_planar_robot) StdoutLine: {'line': b'-- Up-to-date: /home/umrob/M2/ros-2-planar-rob/install/ros2_planar_robot/include/ros2_planar_robot/ros2_planar_robot/msg/detail/ref_pose__rosidl_typesupport_fastrtps_cpp.hpp\n'}
[10.533515] (ros2_planar_robot) StdoutLine: {'line': b'-- Up-to-date: /home/umrob/M2/ros-2-planar-rob/install/ros2_planar_robot/include/ros2_planar_robot/ros2_planar_robot/msg/detail/kin_data__rosidl_typesupport_fastrtps_cpp.hpp\n'}
[10.533617] (ros2_planar_robot) StdoutLine: {'line': b'-- Up-to-date: /home/umrob/M2/ros-2-planar-rob/install/ros2_planar_robot/include/ros2_planar_robot/ros2_planar_robot/msg/rosidl_typesupport_fastrtps_cpp__visibility_control.h\n'}
[10.533721] (ros2_planar_robot) StdoutLine: {'line': b'-- Up-to-date: /home/umrob/M2/ros-2-planar-rob/install/ros2_planar_robot/include/ros2_planar_robot/ros2_planar_robot/srv\n'}
[10.533849] (ros2_planar_robot) StdoutLine: {'line': b'-- Up-to-date: /home/umrob/M2/ros-2-planar-rob/install/ros2_planar_robot/include/ros2_planar_robot/ros2_planar_robot/srv/detail\n'}
[10.533961] (ros2_planar_robot) StdoutLine: {'line': b'-- Up-to-date: /home/umrob/M2/ros-2-planar-rob/install/ros2_planar_robot/include/ros2_planar_robot/ros2_planar_robot/srv/detail/data__rosidl_typesupport_fastrtps_cpp.hpp\n'}
[10.534064] (ros2_planar_robot) StdoutLine: {'line': b'-- Up-to-date: /home/umrob/M2/ros-2-planar-rob/install/ros2_planar_robot/include/ros2_planar_robot/ros2_planar_robot/srv/detail/dds_fastrtps\n'}
[10.534165] (ros2_planar_robot) StdoutLine: {'line': b'-- Up-to-date: /home/umrob/M2/ros-2-planar-rob/install/ros2_planar_robot/lib/libros2_planar_robot__rosidl_typesupport_fastrtps_cpp.so\n'}
[10.534266] (ros2_planar_robot) StdoutLine: {'line': b'-- Up-to-date: /home/umrob/M2/ros-2-planar-rob/install/ros2_planar_robot/include/ros2_planar_robot/ros2_planar_robot\n'}
[10.534377] (ros2_planar_robot) StdoutLine: {'line': b'-- Up-to-date: /home/umrob/M2/ros-2-planar-rob/install/ros2_planar_robot/include/ros2_planar_robot/ros2_planar_robot/msg\n'}
[10.534473] (-) TimerEvent: {}
[10.534623] (ros2_planar_robot) StdoutLine: {'line': b'-- Up-to-date: /home/umrob/M2/ros-2-planar-rob/install/ros2_planar_robot/include/ros2_planar_robot/ros2_planar_robot/msg/detail\n'}
[10.534741] (ros2_planar_robot) StdoutLine: {'line': b'-- Up-to-date: /home/umrob/M2/ros-2-planar-rob/install/ros2_planar_robot/include/ros2_planar_robot/ros2_planar_robot/msg/detail/pose__rosidl_typesupport_introspection_c.h\n'}
[10.534847] (ros2_planar_robot) StdoutLine: {'line': b'-- Up-to-date: /home/umrob/M2/ros-2-planar-rob/install/ros2_planar_robot/include/ros2_planar_robot/ros2_planar_robot/msg/detail/kin_data__rosidl_typesupport_introspection_c.h\n'}
[10.534969] (ros2_planar_robot) StdoutLine: {'line': b'-- Up-to-date: /home/umrob/M2/ros-2-planar-rob/install/ros2_planar_robot/include/ros2_planar_robot/ros2_planar_robot/msg/detail/kin_data__type_support.c\n'}
[10.535072] (ros2_planar_robot) StdoutLine: {'line': b'-- Up-to-date: /home/umrob/M2/ros-2-planar-rob/install/ros2_planar_robot/include/ros2_planar_robot/ros2_planar_robot/msg/detail/ref_pose__type_support.c\n'}
[10.535174] (ros2_planar_robot) StdoutLine: {'line': b'-- Up-to-date: /home/umrob/M2/ros-2-planar-rob/install/ros2_planar_robot/include/ros2_planar_robot/ros2_planar_robot/msg/detail/pose__type_support.c\n'}
[10.535278] (ros2_planar_robot) StdoutLine: {'line': b'-- Up-to-date: /home/umrob/M2/ros-2-planar-rob/install/ros2_planar_robot/include/ros2_planar_robot/ros2_planar_robot/msg/detail/velocity__type_support.c\n'}
[10.535378] (ros2_planar_robot) StdoutLine: {'line': b'-- Up-to-date: /home/umrob/M2/ros-2-planar-rob/install/ros2_planar_robot/include/ros2_planar_robot/ros2_planar_robot/msg/detail/velocity__rosidl_typesupport_introspection_c.h\n'}
[10.535481] (ros2_planar_robot) StdoutLine: {'line': b'-- Up-to-date: /home/umrob/M2/ros-2-planar-rob/install/ros2_planar_robot/include/ros2_planar_robot/ros2_planar_robot/msg/detail/ref_pose__rosidl_typesupport_introspection_c.h\n'}
[10.535582] (ros2_planar_robot) StdoutLine: {'line': b'-- Up-to-date: /home/umrob/M2/ros-2-planar-rob/install/ros2_planar_robot/include/ros2_planar_robot/ros2_planar_robot/msg/detail/cartesian_state__rosidl_typesupport_introspection_c.h\n'}
[10.535686] (ros2_planar_robot) StdoutLine: {'line': b'-- Up-to-date: /home/umrob/M2/ros-2-planar-rob/install/ros2_planar_robot/include/ros2_planar_robot/ros2_planar_robot/msg/detail/cartesian_state__type_support.c\n'}
[10.535788] (ros2_planar_robot) StdoutLine: {'line': b'-- Up-to-date: /home/umrob/M2/ros-2-planar-rob/install/ros2_planar_robot/include/ros2_planar_robot/ros2_planar_robot/msg/rosidl_typesupport_introspection_c__visibility_control.h\n'}
[10.535891] (ros2_planar_robot) StdoutLine: {'line': b'-- Up-to-date: /home/umrob/M2/ros-2-planar-rob/install/ros2_planar_robot/include/ros2_planar_robot/ros2_planar_robot/srv\n'}
[10.535992] (ros2_planar_robot) StdoutLine: {'line': b'-- Up-to-date: /home/umrob/M2/ros-2-planar-rob/install/ros2_planar_robot/include/ros2_planar_robot/ros2_planar_robot/srv/detail\n'}
[10.536093] (ros2_planar_robot) StdoutLine: {'line': b'-- Up-to-date: /home/umrob/M2/ros-2-planar-rob/install/ros2_planar_robot/include/ros2_planar_robot/ros2_planar_robot/srv/detail/data__type_support.c\n'}
[10.536194] (ros2_planar_robot) StdoutLine: {'line': b'-- Up-to-date: /home/umrob/M2/ros-2-planar-rob/install/ros2_planar_robot/include/ros2_planar_robot/ros2_planar_robot/srv/detail/data__rosidl_typesupport_introspection_c.h\n'}
[10.536305] (ros2_planar_robot) StdoutLine: {'line': b'-- Up-to-date: /home/umrob/M2/ros-2-planar-rob/install/ros2_planar_robot/lib/libros2_planar_robot__rosidl_typesupport_introspection_c.so\n'}
[10.536410] (ros2_planar_robot) StdoutLine: {'line': b'-- Up-to-date: /home/umrob/M2/ros-2-planar-rob/install/ros2_planar_robot/lib/libros2_planar_robot__rosidl_typesupport_c.so\n'}
[10.536512] (ros2_planar_robot) StdoutLine: {'line': b'-- Up-to-date: /home/umrob/M2/ros-2-planar-rob/install/ros2_planar_robot/include/ros2_planar_robot/ros2_planar_robot\n'}
[10.536622] (ros2_planar_robot) StdoutLine: {'line': b'-- Up-to-date: /home/umrob/M2/ros-2-planar-rob/install/ros2_planar_robot/include/ros2_planar_robot/ros2_planar_robot/msg\n'}
[10.536723] (ros2_planar_robot) StdoutLine: {'line': b'-- Up-to-date: /home/umrob/M2/ros-2-planar-rob/install/ros2_planar_robot/include/ros2_planar_robot/ros2_planar_robot/msg/detail\n'}
[10.536826] (ros2_planar_robot) StdoutLine: {'line': b'-- Up-to-date: /home/umrob/M2/ros-2-planar-rob/install/ros2_planar_robot/include/ros2_planar_robot/ros2_planar_robot/msg/detail/kin_data__rosidl_typesupport_introspection_cpp.hpp\n'}
[10.536927] (ros2_planar_robot) StdoutLine: {'line': b'-- Up-to-date: /home/umrob/M2/ros-2-planar-rob/install/ros2_planar_robot/include/ros2_planar_robot/ros2_planar_robot/msg/detail/kin_data__type_support.cpp\n'}
[10.537029] (ros2_planar_robot) StdoutLine: {'line': b'-- Up-to-date: /home/umrob/M2/ros-2-planar-rob/install/ros2_planar_robot/include/ros2_planar_robot/ros2_planar_robot/msg/detail/ref_pose__rosidl_typesupport_introspection_cpp.hpp\n'}
[10.537136] (ros2_planar_robot) StdoutLine: {'line': b'-- Up-to-date: /home/umrob/M2/ros-2-planar-rob/install/ros2_planar_robot/include/ros2_planar_robot/ros2_planar_robot/msg/detail/velocity__rosidl_typesupport_introspection_cpp.hpp\n'}
[10.537220] (ros2_planar_robot) StdoutLine: {'line': b'-- Up-to-date: /home/umrob/M2/ros-2-planar-rob/install/ros2_planar_robot/include/ros2_planar_robot/ros2_planar_robot/msg/detail/cartesian_state__type_support.cpp\n'}
[10.537304] (ros2_planar_robot) StdoutLine: {'line': b'-- Up-to-date: /home/umrob/M2/ros-2-planar-rob/install/ros2_planar_robot/include/ros2_planar_robot/ros2_planar_robot/msg/detail/pose__type_support.cpp\n'}
[10.537387] (ros2_planar_robot) StdoutLine: {'line': b'-- Up-to-date: /home/umrob/M2/ros-2-planar-rob/install/ros2_planar_robot/include/ros2_planar_robot/ros2_planar_robot/msg/detail/cartesian_state__rosidl_typesupport_introspection_cpp.hpp\n'}
[10.537471] (ros2_planar_robot) StdoutLine: {'line': b'-- Up-to-date: /home/umrob/M2/ros-2-planar-rob/install/ros2_planar_robot/include/ros2_planar_robot/ros2_planar_robot/msg/detail/pose__rosidl_typesupport_introspection_cpp.hpp\n'}
[10.537555] (ros2_planar_robot) StdoutLine: {'line': b'-- Up-to-date: /home/umrob/M2/ros-2-planar-rob/install/ros2_planar_robot/include/ros2_planar_robot/ros2_planar_robot/msg/detail/ref_pose__type_support.cpp\n'}
[10.537652] (ros2_planar_robot) StdoutLine: {'line': b'-- Up-to-date: /home/umrob/M2/ros-2-planar-rob/install/ros2_planar_robot/include/ros2_planar_robot/ros2_planar_robot/msg/detail/velocity__type_support.cpp\n'}
[10.537737] (ros2_planar_robot) StdoutLine: {'line': b'-- Up-to-date: /home/umrob/M2/ros-2-planar-rob/install/ros2_planar_robot/include/ros2_planar_robot/ros2_planar_robot/srv\n'}
[10.537838] (ros2_planar_robot) StdoutLine: {'line': b'-- Up-to-date: /home/umrob/M2/ros-2-planar-rob/install/ros2_planar_robot/include/ros2_planar_robot/ros2_planar_robot/srv/detail\n'}
[10.537929] (ros2_planar_robot) StdoutLine: {'line': b'-- Up-to-date: /home/umrob/M2/ros-2-planar-rob/install/ros2_planar_robot/include/ros2_planar_robot/ros2_planar_robot/srv/detail/data__rosidl_typesupport_introspection_cpp.hpp\n'}
[10.538013] (ros2_planar_robot) StdoutLine: {'line': b'-- Up-to-date: /home/umrob/M2/ros-2-planar-rob/install/ros2_planar_robot/include/ros2_planar_robot/ros2_planar_robot/srv/detail/data__type_support.cpp\n'}
[10.538097] (ros2_planar_robot) StdoutLine: {'line': b'-- Up-to-date: /home/umrob/M2/ros-2-planar-rob/install/ros2_planar_robot/lib/libros2_planar_robot__rosidl_typesupport_introspection_cpp.so\n'}
[10.538181] (ros2_planar_robot) StdoutLine: {'line': b'-- Up-to-date: /home/umrob/M2/ros-2-planar-rob/install/ros2_planar_robot/lib/libros2_planar_robot__rosidl_typesupport_cpp.so\n'}
[10.538266] (ros2_planar_robot) StdoutLine: {'line': b'-- Up-to-date: /home/umrob/M2/ros-2-planar-rob/install/ros2_planar_robot/share/ros2_planar_robot/environment/pythonpath.sh\n'}
[10.538359] (ros2_planar_robot) StdoutLine: {'line': b'-- Up-to-date: /home/umrob/M2/ros-2-planar-rob/install/ros2_planar_robot/share/ros2_planar_robot/environment/pythonpath.dsv\n'}
[10.538443] (ros2_planar_robot) StdoutLine: {'line': b'-- Up-to-date: /home/umrob/M2/ros-2-planar-rob/install/ros2_planar_robot/local/lib/python3.10/dist-packages/ros2_planar_robot-0.0.0-py3.10.egg-info\n'}
[10.538528] (ros2_planar_robot) StdoutLine: {'line': b'-- Installing: /home/umrob/M2/ros-2-planar-rob/install/ros2_planar_robot/local/lib/python3.10/dist-packages/ros2_planar_robot-0.0.0-py3.10.egg-info/dependency_links.txt\n'}
[10.538611] (ros2_planar_robot) StdoutLine: {'line': b'-- Installing: /home/umrob/M2/ros-2-planar-rob/install/ros2_planar_robot/local/lib/python3.10/dist-packages/ros2_planar_robot-0.0.0-py3.10.egg-info/SOURCES.txt\n'}
[10.538701] (ros2_planar_robot) StdoutLine: {'line': b'-- Installing: /home/umrob/M2/ros-2-planar-rob/install/ros2_planar_robot/local/lib/python3.10/dist-packages/ros2_planar_robot-0.0.0-py3.10.egg-info/PKG-INFO\n'}
[10.538785] (ros2_planar_robot) StdoutLine: {'line': b'-- Installing: /home/umrob/M2/ros-2-planar-rob/install/ros2_planar_robot/local/lib/python3.10/dist-packages/ros2_planar_robot-0.0.0-py3.10.egg-info/top_level.txt\n'}
[10.538868] (ros2_planar_robot) StdoutLine: {'line': b'-- Up-to-date: /home/umrob/M2/ros-2-planar-rob/install/ros2_planar_robot/local/lib/python3.10/dist-packages/ros2_planar_robot\n'}
[10.538952] (ros2_planar_robot) StdoutLine: {'line': b'-- Up-to-date: /home/umrob/M2/ros-2-planar-rob/install/ros2_planar_robot/local/lib/python3.10/dist-packages/ros2_planar_robot/_ros2_planar_robot_s.ep.rosidl_typesupport_c.c\n'}
[10.539036] (ros2_planar_robot) StdoutLine: {'line': b'-- Up-to-date: /home/umrob/M2/ros-2-planar-rob/install/ros2_planar_robot/local/lib/python3.10/dist-packages/ros2_planar_robot/ros2_planar_robot_s__rosidl_typesupport_fastrtps_c.cpython-38-x86_64-linux-gnu.so\n'}
[10.539122] (ros2_planar_robot) StdoutLine: {'line': b'-- Up-to-date: /home/umrob/M2/ros-2-planar-rob/install/ros2_planar_robot/local/lib/python3.10/dist-packages/ros2_planar_robot/_ros2_planar_robot_s.ep.rosidl_typesupport_introspection_c.c\n'}
[10.539207] (ros2_planar_robot) StdoutLine: {'line': b'-- Up-to-date: /home/umrob/M2/ros-2-planar-rob/install/ros2_planar_robot/local/lib/python3.10/dist-packages/ros2_planar_robot/_ros2_planar_robot_s.ep.rosidl_typesupport_fastrtps_c.c\n'}
[10.539293] (ros2_planar_robot) StdoutLine: {'line': b'-- Up-to-date: /home/umrob/M2/ros-2-planar-rob/install/ros2_planar_robot/local/lib/python3.10/dist-packages/ros2_planar_robot/ros2_planar_robot_s__rosidl_typesupport_introspection_c.cpython-38-x86_64-linux-gnu.so\n'}
[10.539378] (ros2_planar_robot) StdoutLine: {'line': b'-- Up-to-date: /home/umrob/M2/ros-2-planar-rob/install/ros2_planar_robot/local/lib/python3.10/dist-packages/ros2_planar_robot/msg\n'}
[10.539461] (ros2_planar_robot) StdoutLine: {'line': b'-- Up-to-date: /home/umrob/M2/ros-2-planar-rob/install/ros2_planar_robot/local/lib/python3.10/dist-packages/ros2_planar_robot/msg/_ref_pose.py\n'}
[10.539545] (ros2_planar_robot) StdoutLine: {'line': b'-- Up-to-date: /home/umrob/M2/ros-2-planar-rob/install/ros2_planar_robot/local/lib/python3.10/dist-packages/ros2_planar_robot/msg/_kin_data.py\n'}
[10.539629] (ros2_planar_robot) StdoutLine: {'line': b'-- Up-to-date: /home/umrob/M2/ros-2-planar-rob/install/ros2_planar_robot/local/lib/python3.10/dist-packages/ros2_planar_robot/msg/_velocity_s.c\n'}
[10.539713] (ros2_planar_robot) StdoutLine: {'line': b'-- Up-to-date: /home/umrob/M2/ros-2-planar-rob/install/ros2_planar_robot/local/lib/python3.10/dist-packages/ros2_planar_robot/msg/_kin_data_s.c\n'}
[10.539797] (ros2_planar_robot) StdoutLine: {'line': b'-- Up-to-date: /home/umrob/M2/ros-2-planar-rob/install/ros2_planar_robot/local/lib/python3.10/dist-packages/ros2_planar_robot/msg/_cartesian_state.py\n'}
[10.539880] (ros2_planar_robot) StdoutLine: {'line': b'-- Up-to-date: /home/umrob/M2/ros-2-planar-rob/install/ros2_planar_robot/local/lib/python3.10/dist-packages/ros2_planar_robot/msg/_pose.py\n'}
[10.539984] (ros2_planar_robot) StdoutLine: {'line': b'-- Up-to-date: /home/umrob/M2/ros-2-planar-rob/install/ros2_planar_robot/local/lib/python3.10/dist-packages/ros2_planar_robot/msg/_cartesian_state_s.c\n'}
[10.540068] (ros2_planar_robot) StdoutLine: {'line': b'-- Up-to-date: /home/umrob/M2/ros-2-planar-rob/install/ros2_planar_robot/local/lib/python3.10/dist-packages/ros2_planar_robot/msg/_ref_pose_s.c\n'}
[10.540152] (ros2_planar_robot) StdoutLine: {'line': b'-- Up-to-date: /home/umrob/M2/ros-2-planar-rob/install/ros2_planar_robot/local/lib/python3.10/dist-packages/ros2_planar_robot/msg/_pose_s.c\n'}
[10.540235] (ros2_planar_robot) StdoutLine: {'line': b'-- Up-to-date: /home/umrob/M2/ros-2-planar-rob/install/ros2_planar_robot/local/lib/python3.10/dist-packages/ros2_planar_robot/msg/__init__.py\n'}
[10.540318] (ros2_planar_robot) StdoutLine: {'line': b'-- Up-to-date: /home/umrob/M2/ros-2-planar-rob/install/ros2_planar_robot/local/lib/python3.10/dist-packages/ros2_planar_robot/msg/_velocity.py\n'}
[10.540403] (ros2_planar_robot) StdoutLine: {'line': b'-- Up-to-date: /home/umrob/M2/ros-2-planar-rob/install/ros2_planar_robot/local/lib/python3.10/dist-packages/ros2_planar_robot/libros2_planar_robot__rosidl_generator_py.so\n'}
[10.540486] (ros2_planar_robot) StdoutLine: {'line': b'-- Up-to-date: /home/umrob/M2/ros-2-planar-rob/install/ros2_planar_robot/local/lib/python3.10/dist-packages/ros2_planar_robot/__init__.py\n'}
[10.540569] (ros2_planar_robot) StdoutLine: {'line': b'-- Up-to-date: /home/umrob/M2/ros-2-planar-rob/install/ros2_planar_robot/local/lib/python3.10/dist-packages/ros2_planar_robot/ros2_planar_robot_s__rosidl_typesupport_c.cpython-38-x86_64-linux-gnu.so\n'}
[10.540656] (ros2_planar_robot) StdoutLine: {'line': b'-- Up-to-date: /home/umrob/M2/ros-2-planar-rob/install/ros2_planar_robot/local/lib/python3.10/dist-packages/ros2_planar_robot/srv\n'}
[10.540746] (ros2_planar_robot) StdoutLine: {'line': b'-- Up-to-date: /home/umrob/M2/ros-2-planar-rob/install/ros2_planar_robot/local/lib/python3.10/dist-packages/ros2_planar_robot/srv/_data.py\n'}
[10.540830] (ros2_planar_robot) StdoutLine: {'line': b'-- Up-to-date: /home/umrob/M2/ros-2-planar-rob/install/ros2_planar_robot/local/lib/python3.10/dist-packages/ros2_planar_robot/srv/__init__.py\n'}
[10.540913] (ros2_planar_robot) StdoutLine: {'line': b'-- Up-to-date: /home/umrob/M2/ros-2-planar-rob/install/ros2_planar_robot/local/lib/python3.10/dist-packages/ros2_planar_robot/srv/_data_s.c\n'}
[10.564846] (ros2_planar_robot) StdoutLine: {'line': b"Listing '/home/umrob/M2/ros-2-planar-rob/install/ros2_planar_robot/local/lib/python3.10/dist-packages/ros2_planar_robot'...\n"}
[10.565073] (ros2_planar_robot) StdoutLine: {'line': b"Listing '/home/umrob/M2/ros-2-planar-rob/install/ros2_planar_robot/local/lib/python3.10/dist-packages/ros2_planar_robot/msg'...\n"}
[10.565145] (ros2_planar_robot) StdoutLine: {'line': b"Listing '/home/umrob/M2/ros-2-planar-rob/install/ros2_planar_robot/local/lib/python3.10/dist-packages/ros2_planar_robot/srv'...\n"}
[10.570033] (ros2_planar_robot) StdoutLine: {'line': b'-- Up-to-date: /home/umrob/M2/ros-2-planar-rob/install/ros2_planar_robot/local/lib/python3.10/dist-packages/ros2_planar_robot/ros2_planar_robot_s__rosidl_typesupport_fastrtps_c.cpython-38-x86_64-linux-gnu.so\n'}
[10.570460] (ros2_planar_robot) StdoutLine: {'line': b'-- Up-to-date: /home/umrob/M2/ros-2-planar-rob/install/ros2_planar_robot/local/lib/python3.10/dist-packages/ros2_planar_robot/ros2_planar_robot_s__rosidl_typesupport_introspection_c.cpython-38-x86_64-linux-gnu.so\n'}
[10.570895] (ros2_planar_robot) StdoutLine: {'line': b'-- Up-to-date: /home/umrob/M2/ros-2-planar-rob/install/ros2_planar_robot/local/lib/python3.10/dist-packages/ros2_planar_robot/ros2_planar_robot_s__rosidl_typesupport_c.cpython-38-x86_64-linux-gnu.so\n'}
[10.571327] (ros2_planar_robot) StdoutLine: {'line': b'-- Up-to-date: /home/umrob/M2/ros-2-planar-rob/install/ros2_planar_robot/lib/libros2_planar_robot__rosidl_generator_py.so\n'}
[10.571517] (ros2_planar_robot) StdoutLine: {'line': b'-- Up-to-date: /home/umrob/M2/ros-2-planar-rob/install/ros2_planar_robot/share/ros2_planar_robot/msg/RefPose.idl\n'}
[10.571697] (ros2_planar_robot) StdoutLine: {'line': b'-- Up-to-date: /home/umrob/M2/ros-2-planar-rob/install/ros2_planar_robot/share/ros2_planar_robot/msg/Pose.idl\n'}
[10.571819] (ros2_planar_robot) StdoutLine: {'line': b'-- Up-to-date: /home/umrob/M2/ros-2-planar-rob/install/ros2_planar_robot/share/ros2_planar_robot/msg/CartesianState.idl\n'}
[10.571890] (ros2_planar_robot) StdoutLine: {'line': b'-- Up-to-date: /home/umrob/M2/ros-2-planar-rob/install/ros2_planar_robot/share/ros2_planar_robot/msg/Velocity.idl\n'}
[10.571957] (ros2_planar_robot) StdoutLine: {'line': b'-- Up-to-date: /home/umrob/M2/ros-2-planar-rob/install/ros2_planar_robot/share/ros2_planar_robot/msg/KinData.idl\n'}
[10.572019] (ros2_planar_robot) StdoutLine: {'line': b'-- Up-to-date: /home/umrob/M2/ros-2-planar-rob/install/ros2_planar_robot/share/ros2_planar_robot/srv/Data.idl\n'}
[10.572078] (ros2_planar_robot) StdoutLine: {'line': b'-- Up-to-date: /home/umrob/M2/ros-2-planar-rob/install/ros2_planar_robot/share/ros2_planar_robot/msg/RefPose.msg\n'}
[10.572138] (ros2_planar_robot) StdoutLine: {'line': b'-- Up-to-date: /home/umrob/M2/ros-2-planar-rob/install/ros2_planar_robot/share/ros2_planar_robot/msg/Pose.msg\n'}
[10.572197] (ros2_planar_robot) StdoutLine: {'line': b'-- Up-to-date: /home/umrob/M2/ros-2-planar-rob/install/ros2_planar_robot/share/ros2_planar_robot/msg/CartesianState.msg\n'}
[10.572256] (ros2_planar_robot) StdoutLine: {'line': b'-- Up-to-date: /home/umrob/M2/ros-2-planar-rob/install/ros2_planar_robot/share/ros2_planar_robot/msg/Velocity.msg\n'}
[10.572353] (ros2_planar_robot) StdoutLine: {'line': b'-- Up-to-date: /home/umrob/M2/ros-2-planar-rob/install/ros2_planar_robot/share/ros2_planar_robot/msg/KinData.msg\n'}
[10.572410] (ros2_planar_robot) StdoutLine: {'line': b'-- Up-to-date: /home/umrob/M2/ros-2-planar-rob/install/ros2_planar_robot/share/ros2_planar_robot/srv/Data.srv\n'}
[10.572468] (ros2_planar_robot) StdoutLine: {'line': b'-- Up-to-date: /home/umrob/M2/ros-2-planar-rob/install/ros2_planar_robot/share/ros2_planar_robot/srv/Data_Request.msg\n'}
[10.572529] (ros2_planar_robot) StdoutLine: {'line': b'-- Up-to-date: /home/umrob/M2/ros-2-planar-rob/install/ros2_planar_robot/share/ros2_planar_robot/srv/Data_Response.msg\n'}
[10.572611] (ros2_planar_robot) StdoutLine: {'line': b'-- Up-to-date: /home/umrob/M2/ros-2-planar-rob/install/ros2_planar_robot/lib/ros2_planar_robot/trajectory_generator\n'}
[10.573049] (ros2_planar_robot) StdoutLine: {'line': b'-- Installing: /home/umrob/M2/ros-2-planar-rob/install/ros2_planar_robot/lib/ros2_planar_robot/high_lev_mng\n'}
[10.576658] (ros2_planar_robot) StdoutLine: {'line': b'-- Set runtime path of "/home/umrob/M2/ros-2-planar-rob/install/ros2_planar_robot/lib/ros2_planar_robot/high_lev_mng" to ""\n'}
[10.577313] (ros2_planar_robot) StdoutLine: {'line': b'-- Up-to-date: /home/umrob/M2/ros-2-planar-rob/install/ros2_planar_robot/lib/libtrajectory_generation_lib.so\n'}
[10.577467] (ros2_planar_robot) StdoutLine: {'line': b'-- Up-to-date: /home/umrob/M2/ros-2-planar-rob/install/ros2_planar_robot/share/ament_index/resource_index/package_run_dependencies/ros2_planar_robot\n'}
[10.577601] (ros2_planar_robot) StdoutLine: {'line': b'-- Up-to-date: /home/umrob/M2/ros-2-planar-rob/install/ros2_planar_robot/share/ament_index/resource_index/parent_prefix_path/ros2_planar_robot\n'}
[10.577693] (ros2_planar_robot) StdoutLine: {'line': b'-- Up-to-date: /home/umrob/M2/ros-2-planar-rob/install/ros2_planar_robot/share/ros2_planar_robot/environment/ament_prefix_path.sh\n'}
[10.577754] (ros2_planar_robot) StdoutLine: {'line': b'-- Up-to-date: /home/umrob/M2/ros-2-planar-rob/install/ros2_planar_robot/share/ros2_planar_robot/environment/ament_prefix_path.dsv\n'}
[10.577825] (ros2_planar_robot) StdoutLine: {'line': b'-- Up-to-date: /home/umrob/M2/ros-2-planar-rob/install/ros2_planar_robot/share/ros2_planar_robot/environment/path.sh\n'}
[10.577894] (ros2_planar_robot) StdoutLine: {'line': b'-- Up-to-date: /home/umrob/M2/ros-2-planar-rob/install/ros2_planar_robot/share/ros2_planar_robot/environment/path.dsv\n'}
[10.577956] (ros2_planar_robot) StdoutLine: {'line': b'-- Up-to-date: /home/umrob/M2/ros-2-planar-rob/install/ros2_planar_robot/share/ros2_planar_robot/local_setup.bash\n'}
[10.578013] (ros2_planar_robot) StdoutLine: {'line': b'-- Up-to-date: /home/umrob/M2/ros-2-planar-rob/install/ros2_planar_robot/share/ros2_planar_robot/local_setup.sh\n'}
[10.578070] (ros2_planar_robot) StdoutLine: {'line': b'-- Up-to-date: /home/umrob/M2/ros-2-planar-rob/install/ros2_planar_robot/share/ros2_planar_robot/local_setup.zsh\n'}
[10.578127] (ros2_planar_robot) StdoutLine: {'line': b'-- Up-to-date: /home/umrob/M2/ros-2-planar-rob/install/ros2_planar_robot/share/ros2_planar_robot/local_setup.dsv\n'}
[10.578184] (ros2_planar_robot) StdoutLine: {'line': b'-- Installing: /home/umrob/M2/ros-2-planar-rob/install/ros2_planar_robot/share/ros2_planar_robot/package.dsv\n'}
[10.578271] (ros2_planar_robot) StdoutLine: {'line': b'-- Up-to-date: /home/umrob/M2/ros-2-planar-rob/install/ros2_planar_robot/share/ament_index/resource_index/packages/ros2_planar_robot\n'}
[10.578350] (ros2_planar_robot) StdoutLine: {'line': b'-- Up-to-date: /home/umrob/M2/ros-2-planar-rob/install/ros2_planar_robot/share/ros2_planar_robot/cmake/export_ros2_planar_robot__rosidl_generator_cExport.cmake\n'}
[10.578410] (ros2_planar_robot) StdoutLine: {'line': b'-- Up-to-date: /home/umrob/M2/ros-2-planar-rob/install/ros2_planar_robot/share/ros2_planar_robot/cmake/export_ros2_planar_robot__rosidl_generator_cExport-noconfig.cmake\n'}
[10.578641] (ros2_planar_robot) StdoutLine: {'line': b'-- Up-to-date: /home/umrob/M2/ros-2-planar-rob/install/ros2_planar_robot/share/ros2_planar_robot/cmake/export_ros2_planar_robot__rosidl_typesupport_fastrtps_cExport.cmake\n'}
[10.578725] (ros2_planar_robot) StdoutLine: {'line': b'-- Up-to-date: /home/umrob/M2/ros-2-planar-rob/install/ros2_planar_robot/share/ros2_planar_robot/cmake/export_ros2_planar_robot__rosidl_typesupport_fastrtps_cExport-noconfig.cmake\n'}
[10.579037] (ros2_planar_robot) StdoutLine: {'line': b'-- Up-to-date: /home/umrob/M2/ros-2-planar-rob/install/ros2_planar_robot/share/ros2_planar_robot/cmake/export_ros2_planar_robot__rosidl_generator_cppExport.cmake\n'}
[10.579371] (ros2_planar_robot) StdoutLine: {'line': b'-- Up-to-date: /home/umrob/M2/ros-2-planar-rob/install/ros2_planar_robot/share/ros2_planar_robot/cmake/export_ros2_planar_robot__rosidl_typesupport_fastrtps_cppExport.cmake\n'}
[10.579534] (ros2_planar_robot) StdoutLine: {'line': b'-- Up-to-date: /home/umrob/M2/ros-2-planar-rob/install/ros2_planar_robot/share/ros2_planar_robot/cmake/export_ros2_planar_robot__rosidl_typesupport_fastrtps_cppExport-noconfig.cmake\n'}
[10.579882] (ros2_planar_robot) StdoutLine: {'line': b'-- Up-to-date: /home/umrob/M2/ros-2-planar-rob/install/ros2_planar_robot/share/ros2_planar_robot/cmake/ros2_planar_robot__rosidl_typesupport_introspection_cExport.cmake\n'}
[10.580046] (ros2_planar_robot) StdoutLine: {'line': b'-- Up-to-date: /home/umrob/M2/ros-2-planar-rob/install/ros2_planar_robot/share/ros2_planar_robot/cmake/ros2_planar_robot__rosidl_typesupport_introspection_cExport-noconfig.cmake\n'}
[10.580251] (ros2_planar_robot) StdoutLine: {'line': b'-- Up-to-date: /home/umrob/M2/ros-2-planar-rob/install/ros2_planar_robot/share/ros2_planar_robot/cmake/ros2_planar_robot__rosidl_typesupport_cExport.cmake\n'}
[10.580483] (ros2_planar_robot) StdoutLine: {'line': b'-- Up-to-date: /home/umrob/M2/ros-2-planar-rob/install/ros2_planar_robot/share/ros2_planar_robot/cmake/ros2_planar_robot__rosidl_typesupport_cExport-noconfig.cmake\n'}
[10.580657] (ros2_planar_robot) StdoutLine: {'line': b'-- Up-to-date: /home/umrob/M2/ros-2-planar-rob/install/ros2_planar_robot/share/ros2_planar_robot/cmake/ros2_planar_robot__rosidl_typesupport_introspection_cppExport.cmake\n'}
[10.580758] (ros2_planar_robot) StdoutLine: {'line': b'-- Up-to-date: /home/umrob/M2/ros-2-planar-rob/install/ros2_planar_robot/share/ros2_planar_robot/cmake/ros2_planar_robot__rosidl_typesupport_introspection_cppExport-noconfig.cmake\n'}
[10.581034] (ros2_planar_robot) StdoutLine: {'line': b'-- Up-to-date: /home/umrob/M2/ros-2-planar-rob/install/ros2_planar_robot/share/ros2_planar_robot/cmake/ros2_planar_robot__rosidl_typesupport_cppExport.cmake\n'}
[10.581133] (ros2_planar_robot) StdoutLine: {'line': b'-- Up-to-date: /home/umrob/M2/ros-2-planar-rob/install/ros2_planar_robot/share/ros2_planar_robot/cmake/ros2_planar_robot__rosidl_typesupport_cppExport-noconfig.cmake\n'}
[10.581436] (ros2_planar_robot) StdoutLine: {'line': b'-- Up-to-date: /home/umrob/M2/ros-2-planar-rob/install/ros2_planar_robot/share/ros2_planar_robot/cmake/export_ros2_planar_robot__rosidl_generator_pyExport.cmake\n'}
[10.581568] (ros2_planar_robot) StdoutLine: {'line': b'-- Up-to-date: /home/umrob/M2/ros-2-planar-rob/install/ros2_planar_robot/share/ros2_planar_robot/cmake/export_ros2_planar_robot__rosidl_generator_pyExport-noconfig.cmake\n'}
[10.581650] (ros2_planar_robot) StdoutLine: {'line': b'-- Up-to-date: /home/umrob/M2/ros-2-planar-rob/install/ros2_planar_robot/share/ros2_planar_robot/cmake/rosidl_cmake-extras.cmake\n'}
[10.581740] (ros2_planar_robot) StdoutLine: {'line': b'-- Up-to-date: /home/umrob/M2/ros-2-planar-rob/install/ros2_planar_robot/share/ros2_planar_robot/cmake/ament_cmake_export_include_directories-extras.cmake\n'}
[10.581831] (ros2_planar_robot) StdoutLine: {'line': b'-- Up-to-date: /home/umrob/M2/ros-2-planar-rob/install/ros2_planar_robot/share/ros2_planar_robot/cmake/ament_cmake_export_libraries-extras.cmake\n'}
[10.581910] (ros2_planar_robot) StdoutLine: {'line': b'-- Up-to-date: /home/umrob/M2/ros-2-planar-rob/install/ros2_planar_robot/share/ros2_planar_robot/cmake/ament_cmake_export_targets-extras.cmake\n'}
[10.581995] (ros2_planar_robot) StdoutLine: {'line': b'-- Up-to-date: /home/umrob/M2/ros-2-planar-rob/install/ros2_planar_robot/share/ros2_planar_robot/cmake/rosidl_cmake_export_typesupport_targets-extras.cmake\n'}
[10.582070] (ros2_planar_robot) StdoutLine: {'line': b'-- Up-to-date: /home/umrob/M2/ros-2-planar-rob/install/ros2_planar_robot/share/ros2_planar_robot/cmake/ament_cmake_export_dependencies-extras.cmake\n'}
[10.582126] (ros2_planar_robot) StdoutLine: {'line': b'-- Up-to-date: /home/umrob/M2/ros-2-planar-rob/install/ros2_planar_robot/share/ros2_planar_robot/cmake/rosidl_cmake_export_typesupport_libraries-extras.cmake\n'}
[10.582181] (ros2_planar_robot) StdoutLine: {'line': b'-- Up-to-date: /home/umrob/M2/ros-2-planar-rob/install/ros2_planar_robot/share/ros2_planar_robot/cmake/ros2_planar_robotConfig.cmake\n'}
[10.582235] (ros2_planar_robot) StdoutLine: {'line': b'-- Up-to-date: /home/umrob/M2/ros-2-planar-rob/install/ros2_planar_robot/share/ros2_planar_robot/cmake/ros2_planar_robotConfig-version.cmake\n'}
[10.582290] (ros2_planar_robot) StdoutLine: {'line': b'-- Up-to-date: /home/umrob/M2/ros-2-planar-rob/install/ros2_planar_robot/share/ros2_planar_robot/package.xml\n'}
[10.584782] (ros2_planar_robot) CommandEnded: {'returncode': 0}
[10.634593] (-) TimerEvent: {}
[10.735144] (-) TimerEvent: {}
[10.835787] (-) TimerEvent: {}
[10.838247] (ros2_planar_robot) JobEnded: {'identifier': 'ros2_planar_robot', 'rc': 0}
[10.838871] (-) EventReactorShutdown: {}
