[0.067s] Invoking command in '/home/umrob/M2/ros-2-planar-rob/build/ros2_planar_robot': CMAKE_PREFIX_PATH=${CMAKE_PREFIX_PATH}:/opt/ros/humble CONDA_PROMPT_MODIFIER=(base) /usr/bin/cmake --build /home/umrob/M2/ros-2-planar-rob/build/ros2_planar_robot -- -j8 -l8
[0.176s] [35m[1mConsolidate compiler generated dependencies of target ros2_planar_robot__rosidl_generator_c[0m
[0.177s] [35m[1mConsolidate compiler generated dependencies of target high_lev_mng[0m
[0.179s] [35m[1mConsolidate compiler generated dependencies of target trajectory_generation_lib[0m
[0.186s] [  1%] Built target ros2_planar_robot__cpp
[0.192s] [ 11%] Built target ros2_planar_robot__rosidl_generator_c
[0.197s] [ 14%] Built target trajectory_generation_lib
[0.202s] [35m[1mConsolidate compiler generated dependencies of target ros2_planar_robot__rosidl_typesupport_cpp[0m
[0.203s] [35m[1mConsolidate compiler generated dependencies of target ros2_planar_robot__rosidl_typesupport_fastrtps_cpp[0m
[0.203s] [35m[1mConsolidate compiler generated dependencies of target ros2_planar_robot__rosidl_typesupport_introspection_cpp[0m
[0.205s] [ 14%] Built target ament_cmake_python_copy_ros2_planar_robot
[0.209s] [35m[1mConsolidate compiler generated dependencies of target ros2_planar_robot__rosidl_typesupport_fastrtps_c[0m
[0.211s] [ 15%] [32mBuilding CXX object CMakeFiles/high_lev_mng.dir/src/high_lev_mng.cpp.o[0m
[0.212s] [35m[1mConsolidate compiler generated dependencies of target ros2_planar_robot__rosidl_typesupport_introspection_c[0m
[0.226s] [ 26%] Built target ros2_planar_robot__rosidl_typesupport_cpp
[0.229s] [ 36%] Built target ros2_planar_robot__rosidl_typesupport_introspection_c
[0.229s] [ 46%] Built target ros2_planar_robot__rosidl_typesupport_introspection_cpp
[0.234s] [35m[1mConsolidate compiler generated dependencies of target ros2_planar_robot__rosidl_typesupport_c[0m
[0.238s] [ 65%] Built target ros2_planar_robot__rosidl_typesupport_fastrtps_cpp
[0.238s] [ 66%] Built target ros2_planar_robot__rosidl_typesupport_fastrtps_c
[0.246s] [ 76%] Built target ros2_planar_robot__rosidl_typesupport_c
[0.247s] [35m[1mConsolidate compiler generated dependencies of target trajectory_generator[0m
[0.265s] [ 76%] Built target ros2_planar_robot
[0.287s] [ 78%] Built target ros2_planar_robot__py
[0.300s] [ 81%] Built target trajectory_generator
[0.309s] [35m[1mConsolidate compiler generated dependencies of target ros2_planar_robot__rosidl_generator_py[0m
[0.334s] [ 89%] Built target ros2_planar_robot__rosidl_generator_py
[0.349s] [35m[1mConsolidate compiler generated dependencies of target ros2_planar_robot__rosidl_typesupport_fastrtps_c__pyext[0m
[0.349s] [35m[1mConsolidate compiler generated dependencies of target ros2_planar_robot__rosidl_typesupport_introspection_c__pyext[0m
[0.350s] [35m[1mConsolidate compiler generated dependencies of target ros2_planar_robot__rosidl_typesupport_c__pyext[0m
[0.364s] [ 92%] Built target ros2_planar_robot__rosidl_typesupport_fastrtps_c__pyext
[0.364s] [ 95%] Built target ros2_planar_robot__rosidl_typesupport_c__pyext
[0.367s] [ 98%] Built target ros2_planar_robot__rosidl_typesupport_introspection_c__pyext
[0.494s] running egg_info
[0.495s] writing ros2_planar_robot.egg-info/PKG-INFO
[0.495s] writing dependency_links to ros2_planar_robot.egg-info/dependency_links.txt
[0.495s] writing top-level names to ros2_planar_robot.egg-info/top_level.txt
[0.497s] reading manifest file 'ros2_planar_robot.egg-info/SOURCES.txt'
[0.498s] writing manifest file 'ros2_planar_robot.egg-info/SOURCES.txt'
[0.523s] [ 98%] Built target ament_cmake_python_build_ros2_planar_robot_egg
[0.751s] [01m[K/home/umrob/M2/ros-2-planar-rob/src/high_lev_mng.cpp:7:10:[m[K [01;31m[Kfatal error: [m[Kros2_planar_robot/msg/ref_pose.hpp: Aucun fichier ou dossier de ce type
[0.751s]     7 | #include [01;31m[K"ros2_planar_robot/msg/ref_pose.hpp"[m[K
[0.751s]       |          [01;31m[K^~~~~~~~~~~~~~~~~~~~~~~~~~~~~~~~~~~~[m[K
[0.751s] compilation terminated.
[0.758s] gmake[2]: *** [CMakeFiles/high_lev_mng.dir/build.make:76 : CMakeFiles/high_lev_mng.dir/src/high_lev_mng.cpp.o] Erreur 1
[0.758s] gmake[1]: *** [CMakeFiles/Makefile2:622 : CMakeFiles/high_lev_mng.dir/all] Erreur 2
[0.758s] gmake: *** [Makefile:146 : all] Erreur 2
[0.761s] Invoked command in '/home/umrob/M2/ros-2-planar-rob/build/ros2_planar_robot' returned '2': CMAKE_PREFIX_PATH=${CMAKE_PREFIX_PATH}:/opt/ros/humble CONDA_PROMPT_MODIFIER=(base) /usr/bin/cmake --build /home/umrob/M2/ros-2-planar-rob/build/ros2_planar_robot -- -j8 -l8
