[01m[K/home/umrob/M2/ros-2-planar-rob/src/high_lev_mng.cpp:[m[K In member function ‘[01m[Kvoid HighLevMng::topic_callback(ros2_planar_robot::msg::KinData_<std::allocator<void> >::SharedPtr)[m[K’:
[01m[K/home/umrob/M2/ros-2-planar-rob/src/high_lev_mng.cpp:33:72:[m[K [01;35m[Kwarning: [m[Kunused parameter ‘[01m[Kref_pose[m[K’ [[01;35m[K]8;;https://gcc.gnu.org/onlinedocs/gcc/Warning-Options.html#index-Wunused-parameter-Wunused-parameter]8;;[m[K]
   33 | back([01;35m[Kconst ros2_planar_robot::msg::KinData::SharedPtr ref_pose[m[K)
      |      [01;35m[K~~~~~~~~~~~~~~~~~~~~~~~~~~~~~~~~~~~~~~~~~~~~~~~~~^~~~~~~~[m[K

